[{
  "state": "LIMA",
  "province": "LIMA",
  "city": "JESUS MARIA",
  "longitude": -77.0402713,
  "latitude": -12.0798682,
  "name": "HOSPITAL NACIONAL EDGARDO REBAGLIATI MARTINS",
  "address": "JIRON EDGARDO REBAGLIATI N 490"
}, {
  "state": "LIMA",
  "province": "LIMA",
  "city": "LURIGANCHO",
  "longitude": -76.6961291,
  "latitude": -11.9383224,
  "name": "CENTRO REFERENCIAL ESPECIALIZADO EN REHABILITACION Y TERAPIA FISICA DE CHOSICA",
  "address": "AVENIDA 28 DE JULIO S/N CHOSICA N MERO S/N"
}, {
  "state": "LIMA",
  "province": "LIMA",
  "city": "VILLA MARIA DEL TRIUNFO",
  "longitude": -76.9274519,
  "latitude": -12.1910331,
  "name": "TABLADA DE LURIN",
  "address": "AV. REPUBLICA Y BILLIN URST S/N 2DO SECTOR"
}, {
  "state": "LIMA",
  "province": "LIMA",
  "city": "VILLA MARIA DEL TRIUNFO",
  "longitude": -76.9405994,
  "latitude": -12.1782885,
  "name": "GUILLERMO KAELIN  DE LA FUENTE",
  "address": "AVENIDA PP.JJ. N EVA ESPERAN A MZ 1B SUBLOTE 1 PABELLON 1 CRUCE AV. 26 DE N VIEMBRE C/ AV DEFEN ORES DE LIMA"
}, {
  "state": "LIMA",
  "province": "LIMA",
  "city": "SAN MARTIN DE PORRES",
  "longitude": -77.0554348,
  "latitude": -12.0199185,
  "name": "INSTITUTO NACIONAL DE SALUD MENTAL \"HONORIO DELGADO - HIDEYO NOGUCHI\"",
  "address": "JIRON JR. ELOY ESPIN ZA SALDAÑA 709 - URB. PALAO"
}, {
  "state": "LIMA",
  "province": "LIMA",
  "city": "CHORRILLOS",
  "longitude": -77.01971338,
  "latitude": -12.16220614,
  "name": "HOSPITAL MILITAR GERIATRICO",
  "address": "AV. ESCUELA MILITAR S/N N MERO S/N"
}, {
  "state": "LIMA",
  "province": "LIMA",
  "city": "LURIGANCHO",
  "longitude": -76.693699,
  "latitude": -11.9344473,
  "name": "HOSPITAL DE MEDIANA COMPLEJIDAD JOSE AGURTO TELLO",
  "address": "JR. AREQUIPA 214-218"
}, {
  "state": "LIMA",
  "province": "LIMA",
  "city": "BREÑA",
  "longitude": -77.0459873,
  "latitude": -12.0654786,
  "name": "INSTITUTO NACIONAL DE SALUD DEL NIÑO",
  "address": "AV. BRASIL N 600"
}, {
  "state": "LIMA",
  "province": "LIMA",
  "city": "EL AGUSTINO",
  "longitude": -76.9935755,
  "latitude": -12.0399743,
  "name": "HOSPITAL NACIONAL HIPOLITO UNANUE",
  "address": "AVENIDA CESAR VALLEJO 1390"
}, {
  "state": "LIMA",
  "province": "LIMA",
  "city": "MIRAFLORES",
  "longitude": -77.0279933,
  "latitude": -12.1136234,
  "name": "ESSALUD - HOSPITAL II SUÑREZ ANGAMOS",
  "address": "AV. AN AMOS ESTE N 261"
}, {
  "state": "LIMA",
  "province": "LIMA",
  "city": "LIMA",
  "longitude": -77.0440331,
  "latitude": -12.0443408,
  "name": "HOSPITAL II RAMÑN CASTILLA",
  "address": "JIRON GUILLERMO DAN EY N 390"
}, {
  "state": "LIMA",
  "province": "LIMA",
  "city": "ATE",
  "longitude": -76.8201183,
  "latitude": -12.0158889,
  "name": "HOSPITAL DE BAJA COMPLEJIDAD HUAYCAN",
  "address": "AV JOSE C.MARIATEGUI S/N ZON  B - A.H.HUAYCAN"
}, {
  "state": "LIMA",
  "province": "LIMA",
  "city": "SANTIAGO DE SURCO",
  "longitude": -76.9888038,
  "latitude": -12.1491162,
  "name": "PUESTO DE SALUD SAN ROQUE",
  "address": "ESTEBAN CAMERE 378 - URB SAN ROQUE"
}, {
  "state": "LIMA",
  "province": "LIMA",
  "city": "SAN JUAN DE LURIGANCHO",
  "longitude": -76.9955667,
  "latitude": -11.9684779,
  "name": "HOSPITAL AURELIO DIAZ UFANO Y PERAL",
  "address": "CALLE MAJES S/N G-11 - URB. LOS PINOS"
}, {
  "state": "LIMA",
  "province": "LIMA",
  "city": "LIMA",
  "longitude": -77.0221718,
  "latitude": -12.0529163,
  "name": "INSTITUTO NACIONAL MATERNO PERINATAL",
  "address": "JIRON JR. AN ON O MIROQUESADA N  941"
}, {
  "state": "LIMA",
  "province": "LIMA",
  "city": "LIMA",
  "longitude": -77.0156898,
  "latitude": -12.0462295,
  "name": "INSTITUTO NACIONAL DE CIENCIAS NEUROLOGICAS",
  "address": "JR. ANCASH 1271"
}, {
  "state": "LIMA",
  "province": "LIMA",
  "city": "LIMA",
  "longitude": -77.0312779,
  "latitude": -12.0589571,
  "name": "HOSPITAL III EMERGENCIAS GRAU",
  "address": "AVENIDA GRAU N  351"
}, {
  "state": "LIMA",
  "province": "LIMA",
  "city": "LIMA",
  "longitude": -77.0550192,
  "latitude": -12.0518041,
  "name": "NACIONAL DE OFTALMOLOGIA",
  "address": "AVENIDA TINGO MARIA 398"
}, {
  "state": "LIMA",
  "province": "LIMA",
  "city": "LURIN",
  "longitude": -76.8544312,
  "latitude": -12.2954167,
  "name": "CENTRO DE SALUD NUEVO LURIN - KM. 40",
  "address": "AV. 28 JULIO  MZ 18 LT 20  N EVO LURIN - KM 40 ANTIGUA PANAMERICANA  SUR"
}, {
  "state": "LIMA",
  "province": "LIMA",
  "city": "LURIGANCHO",
  "longitude": -76.6847591,
  "latitude": -11.9246888,
  "name": "MOYOPAMPA",
  "address": "AV.IN EPEN EN IA S/N CRA.5-AAHH. MOYOPAMPA S/N"
}, {
  "state": "LIMA",
  "province": "LIMA",
  "city": "LIMA",
  "longitude": -77.0423608,
  "latitude": -12.0499179,
  "name": "HOSPITAL NACIONAL DOCENTE MADRE NIÑO SAN BARTOLOME",
  "address": "AVENIDA AV ALFONSO UGARTE N  825"
}, {
  "state": "LIMA",
  "province": "LIMA",
  "city": "SAN MARTIN DE PORRES",
  "longitude": -77.0544967,
  "latitude": -12.0220216,
  "name": "HOSPITAL NACIONAL CAYETANO HEREDIA",
  "address": "AV. HONORIO DELGADO 262 URB. IN EN ERIA"
}, {
  "state": "LIMA",
  "province": "LIMA",
  "city": "SANTIAGO DE SURCO",
  "longitude": -77.0038897,
  "latitude": -12.1521653,
  "name": "CENTRO DE SALUD FAP LAS PALMAS",
  "address": "AV. JORGE CHAVEZ S/N BASE AEREA LAS PALMAS N MERO S/N"
}, {
  "state": "LIMA",
  "province": "LIMA",
  "city": "INDEPENDENCIA",
  "longitude": -77.0617451,
  "latitude": -11.9926724,
  "name": "CENTRO DE ATENCION PRIMARIA III INDEPENDENCIA - RAA - ESSALUD",
  "address": "CALLE CALLE \"A\"  MZ \"D\" LOTE 13 Y 14 - URB. PANAMERICANA"
}, {
  "state": "LIMA",
  "province": "LIMA",
  "city": "JESUS MARIA",
  "longitude": -77.0398868,
  "latitude": -12.0768185,
  "name": "INSTITUTO NACIONAL CARDIOVASCULAR CARLOS ALBERTO PESCHIERA CARRILLO - INCOR",
  "address": "JIRON CORON L FELIX ZEGARRA N .S"
}, {
  "state": "LIMA",
  "province": "LIMA",
  "city": "JESUS MARIA",
  "longitude": -77.0619786,
  "latitude": -12.0871197,
  "name": "HOSPITAL  MILITAR LUIS ARIAS SCHEREIBER",
  "address": "AV FAUSTIN  SANCHEZ CARRION S/N (EX. AV PERSHIN S/N)"
}, {
  "state": "LIMA",
  "province": "LIMA",
  "city": "PUENTE PIEDRA",
  "longitude": -77.079335,
  "latitude": -11.8631805,
  "name": "HOSPITAL CARLOS LANFRANCO LA HOZ",
  "address": "AV. SAEN  PENA - CUADRA 6 S/N"
}, {
  "state": "LIMA",
  "province": "LIMA",
  "city": "VILLA MARIA DEL TRIUNFO",
  "longitude": -76.94539,
  "latitude": -12.1776988,
  "name": "DANIEL ALCIDES CARRION",
  "address": "AV. PACHACUTEC N  3470"
}, {
  "state": "LIMA",
  "province": "LIMA",
  "city": "LA VICTORIA",
  "longitude": -77.022538,
  "latitude": -12.0582734,
  "name": "HOSPITAL NACIONAL GUILLERMO ALMENARA IRIGOYEN",
  "address": "AV. GRAU N  800"
}, {
  "state": "LIMA",
  "province": "LIMA",
  "city": "PUEBLO LIBRE",
  "longitude": -77.0610651,
  "latitude": -12.0716016,
  "name": "HOSPITAL DE APOYO SANTA ROSA",
  "address": "AV. BOLIVAR S/N CUADRA 8"
}, {
  "state": "LIMA",
  "province": "LIMA",
  "city": "LIMA",
  "longitude": -77.0425597,
  "latitude": -12.0498454,
  "name": "NACIONAL ARZOBISPO LOAYZA",
  "address": "AV. ALFONSO UGARTE 848"
}, {
  "state": "LIMA",
  "province": "LIMA",
  "city": "CHORRILLOS",
  "longitude": -77.0048744,
  "latitude": -12.1887664,
  "name": "BUENOS AIRES DE VILLA",
  "address": "AV. BUEN S AIRES DE VILLA S/N"
}, {
  "state": "LIMA",
  "province": "LIMA",
  "city": "CHORRILLOS",
  "longitude": -77.0202982,
  "latitude": -12.1659155,
  "name": "CENTRO MATERNO INFANTIL DE SALUD - \"VIRGEN DEL CARMEN\"",
  "address": "CALLE LEOPOLDO ARIAS N O. 200"
}, {
  "state": "LIMA",
  "province": "LIMA",
  "city": "LA MOLINA",
  "longitude": -76.9455439,
  "latitude": -12.062131,
  "name": "HOSPITAL I CARLOS ALCANTARA BUTTERFIELD",
  "address": "AV. LOS CON TRUCTORES 1201 - URB. COVIMA"
}, {
  "state": "LIMA",
  "province": "LIMA",
  "city": "SANTA ANITA",
  "longitude": -76.9454975,
  "latitude": -12.0468271,
  "name": "HOSPITAL HERMILIO VALDIZAN",
  "address": "CARRETERA CARRETERA CEN RAL KM 3.5"
}, {
  "state": "LIMA",
  "province": "LIMA",
  "city": "MIRAFLORES",
  "longitude": -77.029825,
  "latitude": -12.10342333,
  "name": "FUERZA AEREA DEL PERU",
  "address": "AV. ARAMBURU 2DA. CUADRA S/N"
}, {
  "state": "LIMA",
  "province": "LIMA",
  "city": "ATE",
  "longitude": -76.8299031,
  "latitude": -12.009876,
  "name": "CENTRO DE ATENCION PRIMARIA III - HUAYCAN - RED ASISTENCIAL ALMENARA",
  "address": "AV. J.C. MARIATEGUI, MZ. C, LOTE 49-50 - URB. LUCUMO, PARIACHI"
}, {
  "state": "LIMA",
  "province": "LIMA",
  "city": "LA VICTORIA",
  "longitude": -77.0217293,
  "latitude": -12.0581708,
  "name": "HOSPITAL DE EMERGENCIAS PEDIATRICAS",
  "address": "AVENIDA AV GRAU 854 - PROLON  JR HUAMAN A 147"
}, {
  "state": "LIMA",
  "province": "LIMA",
  "city": "ATE",
  "longitude": -76.90332,
  "latitude": -12.03843,
  "name": "TUPAC AMARU",
  "address": "MZ. D LOTE # 50 ZON  2Ñ - AAHH TUPAC AMARU"
}, {
  "state": "LIMA",
  "province": "LIMA",
  "city": "CHORRILLOS",
  "longitude": -77.0189409,
  "latitude": -12.1601295,
  "name": "CENTRO MEDICO DE LA ESCUELA MILITAR DE CHORRILLOS \"CORONEL FRANCISCO BOLOGNESI\"",
  "address": "AVENIDA AVENIDA ESCUELA MILITAR S/N CHORRILLOS N MERO S/N"
}, {
  "state": "LIMA",
  "province": "LIMA",
  "city": "VILLA MARIA DEL TRIUNFO",
  "longitude": -76.9365017,
  "latitude": -12.1569104,
  "name": "VILLA MARIA DEL TRIUNFO",
  "address": "AV. PEDRO VALLE S/N (ALTURA CUADRA 18 AV.EL TRIUNFO)"
}, {
  "state": "LIMA",
  "province": "LIMA",
  "city": "COMAS",
  "longitude": -77.0395181,
  "latitude": -11.9138337,
  "name": "NACIONAL SERGIO E. BERNALES",
  "address": "AV. TUPAC AMARU KM. 14.5"
}, {
  "state": "LIMA",
  "province": "LIMA",
  "city": "ATE",
  "longitude": -76.9199038,
  "latitude": -12.0260421,
  "name": "HOSPITAL VITARTE",
  "address": "AVENIDA N COLAS AYLLON 5880-CARRETERA CENTRAL"
}, {
  "state": "LIMA",
  "province": "LIMA",
  "city": "PACHACAMAC",
  "longitude": -76.8818267,
  "latitude": -12.088974,
  "name": "CENTRO DE SALUD PORTADA DE MANCHAY",
  "address": "CALLE 7 ESQ. CALLE 4 MZ F LT 11 AAHH PORTADA DE MAN HAY"
}, {
  "state": "LIMA",
  "province": "LIMA",
  "city": "LIMA",
  "longitude": -77.0162686,
  "latitude": -12.0571705,
  "name": "NACIONAL  DOS DE MAYO",
  "address": "PARQUE HISTORIA DE LA MEDICIN  PERUAN  S/N ALTURA CUADRA 13 AV GRAU"
}, {
  "state": "LIMA",
  "province": "LIMA",
  "city": "LURIGANCHO",
  "longitude": -76.709975,
  "latitude": -11.941713,
  "name": "NICOLAS DE PIEROLA",
  "address": "SIMON BOLIVAR N  194 AH N COLAS DE PIEROLA I ZONA"
}, {
  "state": "LIMA",
  "province": "LIMA",
  "city": "LURIGANCHO",
  "longitude": -76.7128534,
  "latitude": -11.9214709,
  "name": "SAN ANTONIO DE PEDREGAL",
  "address": "AVENIDA AV ALFON O UGARTE S/N - SAN AN ON O DE PEDREGAL S/N"
}, {
  "state": "LIMA",
  "province": "LIMA",
  "city": "EL AGUSTINO",
  "longitude": -77.0049229,
  "latitude": -12.0511536,
  "name": "MADRE TERESA  CALCUTA",
  "address": "AV. IN A RIPAC N  229 ( ALT. 8 Y 9 DE RIVA AGUERO)"
}, {
  "state": "LIMA",
  "province": "LIMA",
  "city": "EL AGUSTINO",
  "longitude": -76.9926279,
  "latitude": -12.0274012,
  "name": "BETHANIA",
  "address": "LOS ARTESAN S 166 ASOC.VIV. BETHAN A (CERCA DEL CEI)"
}, {
  "state": "LIMA",
  "province": "LIMA",
  "city": "COMAS",
  "longitude": -77.058242,
  "latitude": -11.9438086,
  "name": "HOSPITAL I MARINO MOLINA SCIPPA",
  "address": "AV. GUILLERMO DE LA FUEN E N  515 URB. SAN A LUZMILA"
}, {
  "state": "LIMA",
  "province": "LIMA",
  "city": "LURIGANCHO",
  "longitude": -76.714793,
  "latitude": -11.9358566,
  "name": "SEÑOR DE LOS MILAGROS",
  "address": "AVENEDA AV.PRECURSORES S/N AAHH N COLAS DE PIEROLA"
}, {
  "state": "LIMA",
  "province": "LIMA",
  "city": "LURIGANCHO",
  "longitude": -76.69714449,
  "latitude": -11.9358106,
  "name": "CHOSICA",
  "address": "AV.LIMA N RTE 422"
}, {
  "state": "LIMA",
  "province": "LIMA",
  "city": "SAN BORJA",
  "longitude": -76.9924058,
  "latitude": -12.0863322,
  "name": "INSTITUTO NACIONAL DE SALUD NIÑO SAN BORJA",
  "address": "AV LA ROSA TORO 1250 URB JACARAN A II"
}, {
  "state": "LIMA",
  "province": "LIMA",
  "city": "COMAS",
  "longitude": -77.026223,
  "latitude": -11.9147365,
  "name": "COLLIQUE III ZONA",
  "address": "AV SAN A ROSA CUADRA 9 S/N - COLLIQUE 3ERA ZON  S/N AV SAN A ROSA CUADRA 9 S/N"
}, {
  "state": "LIMA",
  "province": "LIMA",
  "city": "MAGDALENA DEL MAR",
  "longitude": -77.065756,
  "latitude": -12.098705,
  "name": "HOSPITAL VICTOR LARCO HERRERA",
  "address": "AV.AUGUSTO PEREZ ARAN BAR N  600"
}, {
  "state": "LIMA",
  "province": "LIMA",
  "city": "VILLA EL SALVADOR",
  "longitude": -76.9319845,
  "latitude": -12.2107672,
  "name": "HOSPITAL I ULDARICO ROCCA FERNANDEZ",
  "address": "AV.SEPARADORA IN USTRIAL Y AV. CESAR VALLEJO"
}, {
  "state": "LIMA",
  "province": "LIMA",
  "city": "JESUS MARIA",
  "longitude": -77.0611078,
  "latitude": -12.0839746,
  "name": "HOSPITAL NACIONAL POLICIA NACIONAL DEL PERU GRAL PNP LUIS N. SAENZ.",
  "address": "AVENIDA BRASIL CUADRA 26 S/N S/N AVENIDA BRASIL CUADRA 26 S/N"
}, {
  "state": "LIMA",
  "province": "LIMA",
  "city": "INDEPENDENCIA",
  "longitude": -77.0529828,
  "latitude": -11.9784658,
  "name": "TAHUANTINSUYO BAJO",
  "address": "AV. CHIN HAYSUYO CUADRA 4 - URB. TAHUAN IN UYO"
}, {
  "state": "LIMA",
  "province": "LIMA",
  "city": "SAN MIGUEL",
  "longitude": -77.0945832,
  "latitude": -12.0659612,
  "name": "HOSPITAL I OCTAVIO MONGRUT MUÑOZ",
  "address": "AV PARQUE DE LAS LEYENDAS 255"
}, {
  "state": "LIMA",
  "province": "LIMA",
  "city": "MIRAFLORES",
  "longitude": -77.0180619,
  "latitude": -12.1282107,
  "name": "HOSPITAL DE EMERGENCIAS JOSE CASIMIRO ULLOA",
  "address": "AV. ROOSVELT N  6355 (EX AV. REPUBLICA DE PAN MA) AV. ROOSVELT N  6355 (EX AV. REPUBLICA DE PANAMA)"
}, {
  "state": "LIMA",
  "province": "LIMA",
  "city": "ATE",
  "longitude": -76.987062,
  "latitude": -12.063413,
  "name": "EL BOSQUE",
  "address": "PJ 3 DE MAYO 140 -MZ.B LOTE 12- URB. EL BOSQUE"
}, {
  "state": "LIMA",
  "province": "LIMA",
  "city": "SANTA ANITA",
  "longitude": -76.9582773,
  "latitude": -12.0395799,
  "name": "SAN CARLOS",
  "address": "AVENIDAMETROPOLITAN  MZ B LT.7B ASOC. PRO-VIV SAN CARLOS-SAN A AN"
}, {
  "state": "LIMA",
  "province": "LIMA",
  "city": "CHORRILLOS",
  "longitude": -77.0210028462,
  "latitude": -12.1938544372,
  "name": "SAN GENARO DE VILLA",
  "address": "AV. PRIN IPAL (ALTURA DE LA CALLE 12) AAHH SAN GENARO"
}, {
  "state": "LIMA",
  "province": "LIMA",
  "city": "RIMAC",
  "longitude": -77.0336606,
  "latitude": -12.0343399,
  "name": "RIMAC",
  "address": "PASAJE SAN GERMAN N  270 URB. VILLACAMPA"
}, {
  "state": "LIMA",
  "province": "LIMA",
  "city": "CARABAYLLO",
  "longitude": -77.0244019,
  "latitude": -11.8934379,
  "name": "RAUL PORRAS BARRENECHEA",
  "address": "JIRON JR AREQUIPA 4TA CUADRA S/N  - MZ 40 LOTE 17, PJ RAUL PORRAS BARREN CHEA N MERO S/N"
}, {
  "state": "LIMA",
  "province": "LIMA",
  "city": "CARABAYLLO",
  "longitude": -77.0167279,
  "latitude": -11.87554,
  "name": "EL PROGRESO",
  "address": "AV. TUPAC AMARU N  2950 (KM 22)"
}, {
  "state": "LIMA",
  "province": "LIMA",
  "city": "CARABAYLLO",
  "longitude": -77.0271114,
  "latitude": -11.8961113,
  "name": "LA FLOR",
  "address": "JIRON JR. PUN  S/N ESQ. CON JR. 25 DE FEBRERO S/N N MERO S/N"
}, {
  "state": "LIMA",
  "province": "LIMA",
  "city": "CARABAYLLO",
  "longitude": -77.022109,
  "latitude": -11.88614,
  "name": "VILLA ESPERANZA",
  "address": "JIRON JR 9 DE OCTUBRE CUADRA 2 S/N - PPJJ VILLA ESPERAN A N MERO S/N"
}, {
  "state": "LIMA",
  "province": "LIMA",
  "city": "CARABAYLLO",
  "longitude": -77.0201549,
  "latitude": -11.8839462,
  "name": "JORGE LINGAN",
  "address": "JIRON JR LOS ALHELIES S/N - 1ER SECTOR EL PROGRESO N MERO S/N"
}, {
  "state": "LIMA",
  "province": "LIMA",
  "city": "CARABAYLLO",
  "longitude": -77.0095277,
  "latitude": -11.8770066,
  "name": "LUIS ENRIQUE",
  "address": "AVENIDA AV MAN EL PRADO CUADRA 7 S/N - EL PROGRESO 4TO SECTOR N MERO S/N"
}, {
  "state": "LIMA",
  "province": "LIMA",
  "city": "CARABAYLLO",
  "longitude": -77.000102,
  "latitude": -11.8345612,
  "name": "PUNCHAUCA",
  "address": "CARRETERA CARRETERA CAN A KM 25.5 - AA.HH. PUN HAUCA"
}, {
  "state": "LIMA",
  "province": "LIMA",
  "city": "SAN MARTIN DE PORRES",
  "longitude": -77.0850499,
  "latitude": -12.0252261,
  "name": "MEXICO",
  "address": "AV  DIEZ CAN ECO N  3613 - URB CON EVILLA"
}, {
  "state": "LIMA",
  "province": "LIMA",
  "city": "SAN MARTIN DE PORRES",
  "longitude": -77.0660911,
  "latitude": -12.0233352,
  "name": "VALDIVIEZO",
  "address": "CALLE LAS DALIAS N  171 - URB. VALDIVIEZO"
}, {
  "state": "LIMA",
  "province": "LIMA",
  "city": "SAN MARTIN DE PORRES",
  "longitude": -77.0764106,
  "latitude": -12.028589,
  "name": "PERU III ZONA",
  "address": "AV UN VERSITARIA 181 URB CON EVILLA"
}, {
  "state": "LIMA",
  "province": "LIMA",
  "city": "COMAS",
  "longitude": -77.0401525,
  "latitude": -11.9231023,
  "name": "AÑO NUEVO",
  "address": "AVENIDA AV FRAN ISCO BOLOGN SI CUADRA 6 S/N - PPJJ AÑO N EVO N MERO S/N"
}, {
  "state": "LIMA",
  "province": "LIMA",
  "city": "COMAS",
  "longitude": -77.0553621,
  "latitude": -11.9160503,
  "name": "CENTRO MATERNO INFANTIL LAURA RODRIGUEZ",
  "address": "CALLE CALLE 30 N  150 (AN ES MZ R1 LOTE 2- PARCELA A) URB. EL PIN R"
}, {
  "state": "LIMA",
  "province": "LIMA",
  "city": "COMAS",
  "longitude": -77.0113278,
  "latitude": -11.9146878,
  "name": "GUSTAVO LANATTA",
  "address": "CALLE CALLE AREQUIPA S/N CUADRA 2 - COLLIQUE 5TA ZON  N MERO S/N"
}, {
  "state": "LIMA",
  "province": "LIMA",
  "city": "COMAS",
  "longitude": -77.0436659,
  "latitude": -11.9187627,
  "name": "SANGARARA",
  "address": "JIRON JR LA UN ON (CON CALLE CUZCO) CUADRA 6 S/N  - ASOC. VIVIEN A PABLO VI N MERO S/N"
}, {
  "state": "LIMA",
  "province": "LIMA",
  "city": "COMAS",
  "longitude": -77.0258283,
  "latitude": -11.9186782,
  "name": "MILAGRO DE JESUS",
  "address": "AV. SAN O TORIBIO DE MOGROVEJO, MZ L, LOTE 10 - AAHH MILAGRO DE JESUS"
}, {
  "state": "LIMA",
  "province": "LIMA",
  "city": "COMAS",
  "longitude": -77.0471573,
  "latitude": -11.9402602,
  "name": "CARLOS A. PROTZEL",
  "address": "AVENIDA AV BELAUN E ESTE - 2DA CUADRA S/N N MERO S/N"
}, {
  "state": "LIMA",
  "province": "LIMA",
  "city": "COMAS",
  "longitude": -77.0308479,
  "latitude": -11.945087,
  "name": "CARMEN ALTO",
  "address": "AVENIDA AV 3 DE OCTUBRE 1990 AAHH CARMEN ALTO"
}, {
  "state": "LIMA",
  "province": "LIMA",
  "city": "COMAS",
  "longitude": -77.0401638,
  "latitude": -11.9412286,
  "name": "CARMEN MEDIO",
  "address": "JIRON JR. CAHUIDE S/N CDRA 8 CARMEN MEDIO N MERO S/N"
}, {
  "state": "LIMA",
  "province": "LIMA",
  "city": "COMAS",
  "longitude": -77.0636501,
  "latitude": -11.9416876,
  "name": "SANTA LUZMILA I",
  "address": "AVENIDA AV GUILLERMO DE LA FUEN E CUADRA 2 S/N - URB SAN A LUZMILA 1 ETAPA N MERO S/N"
}, {
  "state": "LIMA",
  "province": "LIMA",
  "city": "COMAS",
  "longitude": -77.0495129,
  "latitude": -11.9535459,
  "name": "COMAS",
  "address": "JIRON JR PUN  3ERA CUADRA, S/N N MERO S/N"
}, {
  "state": "LIMA",
  "province": "LIMA",
  "city": "COMAS",
  "longitude": -77.057458,
  "latitude": -11.959672,
  "name": "CARLOS PHILLIPS",
  "address": "CALLE CALLE BRASILIA CUADRA 1 S/N - URB EL PARRAL N MERO S/N"
}, {
  "state": "LIMA",
  "province": "LIMA",
  "city": "COMAS",
  "longitude": -77.0518657,
  "latitude": -11.9361947,
  "name": "HUSARES DE JUNIN",
  "address": "JIRON JR HUSARES DE JUN N S/N - URB HUAQUILLAY 2DA ETAPA N MERO S/N"
}, {
  "state": "LIMA",
  "province": "LIMA",
  "city": "COMAS",
  "longitude": -77.0587122,
  "latitude": -11.9470252,
  "name": "CENTRO MATERNO INFANTIL SANTA LUZMILA II",
  "address": "AV. 22 DE AGOSTO N  1001- URB SAN A LUZMILA II ETAPA"
}, {
  "state": "LIMA",
  "province": "LIMA",
  "city": "COMAS",
  "longitude": -77.0541862,
  "latitude": -11.9661638,
  "name": "CLORINDA MALAGA",
  "address": "PASAJE PSJE. ATAHUALPA S/N - VILLA CLORIN A N MERO S/N"
}, {
  "state": "LIMA",
  "province": "LIMA",
  "city": "INDEPENDENCIA",
  "longitude": -77.0449556,
  "latitude": -11.9992218,
  "name": "ERMITAÑO ALTO",
  "address": "AVENIDA AV LOS JAZMIN S S/N  PARADERO 8 - ERMITANO ALTO N MERO S/N"
}, {
  "state": "LIMA",
  "province": "LIMA",
  "city": "INDEPENDENCIA",
  "longitude": -77.0546443,
  "latitude": -11.9977277,
  "name": "ERMITAÑO BAJO",
  "address": "JIRON JR. LOS PIN S S/N N MERO S/N"
}, {
  "state": "LIMA",
  "province": "LIMA",
  "city": "INDEPENDENCIA",
  "longitude": -77.0476186,
  "latitude": -12.0171219,
  "name": "EL CARMEN",
  "address": "JIRON JR 23 DE DICIEMBRE S/N - AAHH VILLA EL CARMEN N MERO S/N"
}, {
  "state": "LIMA",
  "province": "LIMA",
  "city": "INDEPENDENCIA",
  "longitude": -77.0490816,
  "latitude": -12.0115856,
  "name": "MILAGRO DE LA FRATERNIDAD",
  "address": "AVENIDA ESQUIN  DE AV. LOS HEROES CON AV. ALVIN  HERRERA"
}, {
  "state": "LIMA",
  "province": "LIMA",
  "city": "INDEPENDENCIA",
  "longitude": -77.0396598,
  "latitude": -11.979306,
  "name": "TAHUANTINSUYO ALTO",
  "address": "AVENIDA AV HERMAN S AYAR 2DA CUADRA S/N - TAHUAN IN UYO ALTO 3ERA ZON  N MERO S/N"
}, {
  "state": "LIMA",
  "province": "LIMA",
  "city": "INDEPENDENCIA",
  "longitude": -77.045511,
  "latitude": -11.9722396,
  "name": "TUPAC AMARU",
  "address": "JIRON JR CAJABAMBA S/N  3ERA CUADRA - URB POPULAR TUPAC AMARU N MERO S/N"
}, {
  "state": "LIMA",
  "province": "LIMA",
  "city": "INDEPENDENCIA",
  "longitude": -77.0542211,
  "latitude": -11.9876035,
  "name": "LAS AMERICAS",
  "address": "JIRON JR COLLASUYO CUADRA 2 S/N - 1ERA ZON  TAHUAN IN UYO N MERO S/N"
}, {
  "state": "LIMA",
  "province": "LIMA",
  "city": "LOS OLIVOS",
  "longitude": -77.0788909,
  "latitude": -11.9532122,
  "name": "CLAS JUAN PABLO II",
  "address": "CALLE 28 S/N AA.HH. JUAN PABLO II"
}, {
  "state": "LIMA",
  "province": "LIMA",
  "city": "INDEPENDENCIA",
  "longitude": -77.0574234,
  "latitude": -11.9774977,
  "name": "VICTOR RAUL HAYA DE LA TORRE",
  "address": "CALLE CALLE A MZ 2 LOTE 3 - ASOC VIV VICTOR RAUL HAYA DE LA TORRE"
}, {
  "state": "LIMA",
  "province": "LIMA",
  "city": "INDEPENDENCIA",
  "longitude": -77.0391282,
  "latitude": -11.9674774,
  "name": "JOSE OLAYA",
  "address": "AVENIDA AV 4 DE N VIEMBRE S/N  AAHH JOSE OLAYA - URB PAYET N MERO S/N"
}, {
  "state": "LIMA",
  "province": "LIMA",
  "city": "SAN MARTIN DE PORRES",
  "longitude": -77.0853237,
  "latitude": -11.9841531,
  "name": "CENTRO DE SALUD SAN JUAN DE SALINAS",
  "address": "JR. TURQUESAS S/N , PARQUE 8, ASOCIACION DE VIVIEN A EL ROSARIO DEL N RTE"
}, {
  "state": "LIMA",
  "province": "LIMA",
  "city": "ANCON",
  "longitude": -77.1727247,
  "latitude": -11.7747191,
  "name": "CENTRO DE SALUD MATERNO INFANTIL ANCON",
  "address": "JR. LOA 595 AN ON"
}, {
  "state": "LIMA",
  "province": "LIMA",
  "city": "PUENTE PIEDRA",
  "longitude": -77.1090997,
  "latitude": -11.8376114,
  "name": "MATERNO INFANTIL DR. ENRIQUE MARTIN ALTUNA",
  "address": "ASOC VIV E IN USTRIAS VIRGEN DE LAS N EVES URB LEON IO PRADO MZ B LT. 18A KM 35.5 PAN M. N RTE"
}, {
  "state": "LIMA",
  "province": "LIMA",
  "city": "PUENTE PIEDRA",
  "longitude": -77.0816932,
  "latitude": -11.8748274,
  "name": "SANTA ROSA",
  "address": "AA.HH. SAN A ROSA, MZ. 50, LOTE PM - AV. SAN A ROSA"
}, {
  "state": "LIMA",
  "province": "LIMA",
  "city": "PUENTE PIEDRA",
  "longitude": -77.1174256,
  "latitude": -11.8279251,
  "name": "JERUSALEN",
  "address": "AV. SAN JUAN S/N - AA.HH. JERUSALEN"
}, {
  "state": "LIMA",
  "province": "LIMA",
  "city": "PUENTE PIEDRA",
  "longitude": -77.0697014,
  "latitude": -11.8875316,
  "name": "LOS SUREÑOS",
  "address": "COOP.  VIVIEN A LOS SUREÑOS MZ M LT. 35"
}, {
  "state": "LIMA",
  "province": "LIMA",
  "city": "CARABAYLLO",
  "longitude": -77.037398,
  "latitude": -11.854034,
  "name": "SAN PEDRO DE CARABAYLLO",
  "address": "AAHH 28 DE JULIO MZ G LT. 9 KM 5 CARRETERA HUARAN AL"
}, {
  "state": "LIMA",
  "province": "LIMA",
  "city": "ANCON",
  "longitude": -77.15458139,
  "latitude": -11.76215539,
  "name": "VILLA ESTELA",
  "address": "PROYECTO IN EGRAL MUN CIPAL PAN MERICAN  N RTE SECTOR I - AA.HH. VILLA ESTELA MZ. B-5 LT. 13"
}, {
  "state": "LIMA",
  "province": "LIMA",
  "city": "ANCON",
  "longitude": -77.162575,
  "latitude": -11.7782373,
  "name": "SAN JOSE",
  "address": "ESQ. CALLE N  17 Y CALLE N  9 URB. DE IN ERES SOCIAL SAN JOSE DE AN ON LOTE PMED"
}, {
  "state": "LIMA",
  "province": "LIMA",
  "city": "SANTA ROSA",
  "longitude": -77.1316766,
  "latitude": -11.81525,
  "name": "VIRGEN DE LAS MERCEDES",
  "address": "ASOC. VIV. SAN A ROSA MZ. B LT. 09"
}, {
  "state": "LIMA",
  "province": "LIMA",
  "city": "ATE",
  "longitude": -76.9418961,
  "latitude": -12.030828,
  "name": "FORTALEZA",
  "address": "CL LOS VIRREYES S/N URB. FORTALEZA DE VITARTE"
}, {
  "state": "LIMA",
  "province": "LIMA",
  "city": "SANTA ANITA",
  "longitude": -76.9757381,
  "latitude": -12.0437743,
  "name": "COOPERATIVA UNIVERSAL",
  "address": "AVENIDA J.C. MARIATEGUI CDRA. 5 - 2DA ETAPA - ESPALDA DE DELEGACION POLICIAL"
}, {
  "state": "LIMA",
  "province": "LIMA",
  "city": "SANTA ANITA",
  "longitude": -76.9640255,
  "latitude": -12.0356921,
  "name": "CHANCAS DE ANDAHUAYLAS",
  "address": "CL VIRU S/N PARQUE 4-COOP. CHAN AS DE AN AHUAYLAS - SAN A AN TA N MERO S/N"
}, {
  "state": "LIMA",
  "province": "LIMA",
  "city": "SANTA ANITA",
  "longitude": -76.968737,
  "latitude": -12.0466129,
  "name": "METROPOLITANA",
  "address": "AVENIDA LOS RUISEÑORES 873-A URB.SANTA ANITA"
}, {
  "state": "LIMA",
  "province": "LIMA",
  "city": "SANTA ANITA",
  "longitude": -76.951488,
  "latitude": -12.033188,
  "name": "VIÑA SAN FRANCISCO",
  "address": "URBAN ZACION PRODUCTORES MZ A LT 14 DISTRITO SAN A ANITA"
}, {
  "state": "LIMA",
  "province": "LIMA",
  "city": "LURIGANCHO",
  "longitude": -76.7507037,
  "latitude": -11.9645419,
  "name": "CHACRASANA",
  "address": "AVENIDA LA BAJADA MZ E LOTE S/N - ASOC.VIV. CHACRASAN  NUMERO S/N"
}, {
  "state": "LIMA",
  "province": "LIMA",
  "city": "LURIGANCHO",
  "longitude": -76.729942,
  "latitude": -11.948348,
  "name": "YANACOTO",
  "address": "AVENIDA LIMA MZ. F - LOTE 14 - AAHH YAN COTO 2DA ZON"
}, {
  "state": "LIMA",
  "province": "LIMA",
  "city": "LURIGANCHO",
  "longitude": -76.9343332,
  "latitude": -11.96432,
  "name": "VILLA  DEL SOL",
  "address": "MZ. J, LOTE 4 COOP. VILLA DEL SOL"
}, {
  "state": "LIMA",
  "province": "LIMA",
  "city": "LURIGANCHO",
  "longitude": -76.686205,
  "latitude": -11.930408,
  "name": "PABLO PATRON",
  "address": "AAHH PABLO PATRON - CALLE 14 MZ. V LOTE 7"
}, {
  "state": "LIMA",
  "province": "LIMA",
  "city": "ATE",
  "longitude": -76.8387878,
  "latitude": -12.019211,
  "name": "HORACIO ZEVALLOS",
  "address": "AV. J. ZUBIETA S/N - AA.HH HORACIO ZEVALLOS N MERO S/N"
}, {
  "state": "LIMA",
  "province": "LIMA",
  "city": "ATE",
  "longitude": -76.8226607,
  "latitude": -12.0265333,
  "name": "SEÑOR DE LOS MILAGROS",
  "address": "AVENIDA 15 DE JULIO S/N AREA DE SERV. ZON  K HUAYCAN N MERO S/N"
}, {
  "state": "LIMA",
  "province": "LIMA",
  "city": "LURIGANCHO",
  "longitude": -76.9427212,
  "latitude": -11.9807667,
  "name": "JICAMARCA",
  "address": "AVENIDA13 DE JUN O MZ N LOTE 2-OVALO CEN RAL JICAMARCA AN XO 8"
}, {
  "state": "LIMA",
  "province": "LIMA",
  "city": "LURIGANCHO",
  "longitude": -76.7318135,
  "latitude": -11.9513258,
  "name": "SANTA MARIA DE HUACHIPA",
  "address": "LOS  CAN RIOS MZ O2 LOTE 5"
}, {
  "state": "LIMA",
  "province": "LIMA",
  "city": "LURIGANCHO",
  "longitude": -76.8756992,
  "latitude": -12.0021766,
  "name": "VIRGEN DEL ROSARIO CARAPONGO",
  "address": "URB.SAN AN ON O MZ Y LT 19"
}, {
  "state": "LIMA",
  "province": "LIMA",
  "city": "LURIGANCHO",
  "longitude": -76.8833177,
  "latitude": -11.9662957,
  "name": "VILLA LETICIA DE CAJAMARQUILLA",
  "address": "AAHH PAMPA LOS OLIVARES-VILLA LETICIA-MZ K1 LOTE 9-12"
}, {
  "state": "LIMA",
  "province": "LIMA",
  "city": "LURIGANCHO",
  "longitude": -76.924188,
  "latitude": -12.000425,
  "name": "ALTO PERU",
  "address": "AAHH SAN A CRUZ DE HUACHIPA MZ B LT.1"
}, {
  "state": "LIMA",
  "province": "LIMA",
  "city": "LURIGANCHO",
  "longitude": -76.907971,
  "latitude": -11.976816,
  "name": "NIEVERIA DEL PARAISO",
  "address": "EX FUN O AGRICOLA N EVERIA LOTE 62-B LT.1"
}, {
  "state": "LIMA",
  "province": "LIMA",
  "city": "LA MOLINA",
  "longitude": -76.91693161,
  "latitude": -12.07884185,
  "name": "LA MOLINA",
  "address": "CALLE EL HARAS S/N ( COST. CUN  MUN CIPAL) ESQ.MAN EL PRADO UGARTECHE CDRA.4 RIN ON DA BAJA N MERO S/N"
}, {
  "state": "LIMA",
  "province": "LIMA",
  "city": "LA MOLINA",
  "longitude": -76.9267696,
  "latitude": -12.1095837,
  "name": "MUSA",
  "address": "LOS TULIPAN S S/N ( CTDO. PQUE MUN CIPAL) N MERO S/N"
}, {
  "state": "LIMA",
  "province": "LIMA",
  "city": "LA MOLINA",
  "longitude": -76.938071,
  "latitude": -12.110002,
  "name": "PORTADA DEL SOL",
  "address": "AVENIDA PRIN IPAL S/N MZ. E- 6 LT. 3 - 2DA ETAPA URB. PORTADA DEL SOL N MERO S/N"
}, {
  "state": "LIMA",
  "province": "LIMA",
  "city": "EL AGUSTINO",
  "longitude": -76.9954453,
  "latitude": -12.0512135,
  "name": "CATALINA HUANCA",
  "address": "CALLE GON ÑLES DE FAN IN  180 ( CERCA AL CE 076)"
}, {
  "state": "LIMA",
  "province": "LIMA",
  "city": "EL AGUSTINO",
  "longitude": -77.007416,
  "latitude": -12.0318744,
  "name": "ANCIETA BAJA",
  "address": "AGRUPACION FAMILIAR LOS JARDIN S - EX AN IETA BAJA - MZ G LOTE 4"
}, {
  "state": "LIMA",
  "province": "LIMA",
  "city": "EL AGUSTINO",
  "longitude": -77.0055986,
  "latitude": -12.0344562,
  "name": "PRIMAVERA",
  "address": "CALLE URB. PRIMAVERA CALLE 23 DE SETIEMBRE S/N S/N URB. PRIMAVERA CALLE 23 DE SETIEMBRE S/N"
}, {
  "state": "LIMA",
  "province": "LIMA",
  "city": "EL AGUSTINO",
  "longitude": -77.0009781,
  "latitude": -12.0542654,
  "name": "EL AGUSTINO",
  "address": "ARACELI CATALAN - ESQ. IN EPEN IEN E (PIE DEL CERRO EL AGUSTIN )"
}, {
  "state": "LIMA",
  "province": "LIMA",
  "city": "SANTA ANITA",
  "longitude": -76.9843438,
  "latitude": -12.046338,
  "name": "NOCHETO",
  "address": "CALLE CALLE JAVIER HERAUD S/N URB. AH N CHETO S/N CALLE JAVIER HERAUD S/N URB. AH N CHETO SAN A AN TA"
}, {
  "state": "LIMA",
  "province": "LIMA",
  "city": "SANTA ANITA",
  "longitude": -76.9822607,
  "latitude": -12.0537232,
  "name": "SANTA ROSA DE QUIVES",
  "address": "CALLE LOS CACTUS MZ.W1 LT. 43 COOP. STA. ROSA DE QUIVES"
}, {
  "state": "LIMA",
  "province": "LIMA",
  "city": "ATE",
  "longitude": -76.9011987,
  "latitude": -12.0237594,
  "name": "EL ÑXITO",
  "address": "MZ. F - LOTE 1 - URB. EL EXITO"
}, {
  "state": "LIMA",
  "province": "LIMA",
  "city": "ATE",
  "longitude": -76.884565,
  "latitude": -12.0162264,
  "name": "SANTA CLARA",
  "address": "AVENIDA ESTRELLA S/N SAN A CLARA CC.KM. 12 N MERO S/N"
}, {
  "state": "LIMA",
  "province": "LIMA",
  "city": "ATE",
  "longitude": -76.8887157,
  "latitude": -12.0326573,
  "name": "MANYLSA",
  "address": "MZ. F - LOTE 1 - COOP. MAN LSA"
}, {
  "state": "LIMA",
  "province": "LIMA",
  "city": "ATE",
  "longitude": -76.931598,
  "latitude": -12.04457,
  "name": "MICAELA BASTIDAS",
  "address": "MZA. V- AAHH M. BASTIDAS - PARQUE CENTRAL"
}, {
  "state": "LIMA",
  "province": "LIMA",
  "city": "ATE",
  "longitude": -76.9571572,
  "latitude": -12.0560161,
  "name": "ATE",
  "address": "JIRON PARURO 138 COOP. 27 DE ABRIL"
}, {
  "state": "LIMA",
  "province": "LIMA",
  "city": "ATE",
  "longitude": -76.9063862,
  "latitude": -12.0294635,
  "name": "SAN ANTONIO",
  "address": "CALLE 7 ESQ.CALLE 8 S/N - ASOC. POBLADORES SAN AN ON O N MERO S/N"
}, {
  "state": "LIMA",
  "province": "LIMA",
  "city": "CHACLACAYO",
  "longitude": -76.760516,
  "latitude": -11.9746368,
  "name": "CHACLACAYO - LOPEZ SILVA",
  "address": "CARRETERA LAS RETAMAS 300 - CARRETERA CEN RAL KM. 23 LAS RETAMAS 300 - CARRETERA CEN RAL KM. 23 CHACLACAYO"
}, {
  "state": "LIMA",
  "province": "LIMA",
  "city": "CHACLACAYO",
  "longitude": -76.8198403,
  "latitude": -11.9863974,
  "name": "PROGRESO",
  "address": "AVENIDA ATAHUALPA N  373-CULTURA Y PROGRESO"
}, {
  "state": "LIMA",
  "province": "LIMA",
  "city": "CHACLACAYO",
  "longitude": -76.7600498,
  "latitude": -12.0130237,
  "name": "PERLA DEL SOL",
  "address": "AVENIDA PERU LT.49 PERLA DEL SOL"
}, {
  "state": "LIMA",
  "province": "LIMA",
  "city": "CHACLACAYO",
  "longitude": -76.819316,
  "latitude": -11.993645,
  "name": "HUASCATA",
  "address": "MZ N LOTE 05 AAHH CERRO VECIN  HUASCATA-CHACLACAYO MZ N LOTE 05 AAHH CERRO VECIN  HUASCATA-CHACLACAYO CHACLACAYO"
}, {
  "state": "LIMA",
  "province": "LIMA",
  "city": "LURIGANCHO",
  "longitude": -76.8374379,
  "latitude": -11.9846891,
  "name": "VIRGEN DEL CARMEN - LA ERA",
  "address": "MZ D LOTE 2 C.POB. VIRGEN DEL CARMEN LA ERA"
}, {
  "state": "LIMA",
  "province": "LIMA",
  "city": "ATE",
  "longitude": -76.9789165,
  "latitude": -12.0694803,
  "name": "GUSTAVO LANATTA",
  "address": "JIRON UERTO ESPAÑA MZ F2 LOTE 02 - SICUAN"
}, {
  "state": "LIMA",
  "province": "LIMA",
  "city": "EL AGUSTINO",
  "longitude": -77.0036943,
  "latitude": -12.0606209,
  "name": "SANTA MAGDALENA SOFIA",
  "address": "AVENIDA GARCILAZO DE LA VEGA CDRA. 3 - SAN PEDRO"
}, {
  "state": "LIMA",
  "province": "LIMA",
  "city": "ATE",
  "longitude": -76.9964076,
  "latitude": -12.0600611,
  "name": "SAN FERNANDO",
  "address": "JIRON OSE SAN OS CHOCAN  CDRA.01 S/N - URB.VALDIVIEZO N MERO S/N"
}, {
  "state": "LIMA",
  "province": "LIMA",
  "city": "EL AGUSTINO",
  "longitude": -76.994256,
  "latitude": -12.055972,
  "name": "7 DE OCTUBRE",
  "address": "AVENIDASAN A ROSA S/N VI ZON  - AAHH 7 DE OCTUBRE N MERO S/N"
}, {
  "state": "LIMA",
  "province": "LIMA",
  "city": "CIENEGUILLA",
  "longitude": -76.81454499,
  "latitude": -12.12053123,
  "name": "HUAYCAN DE CIENEGUILLA",
  "address": "CEN RO POBLADO HUAYCAN MZ D, LOTE 7 - CPR AUTOG.HUAYCAN CIEN GUILLA"
}, {
  "state": "LIMA",
  "province": "LIMA",
  "city": "CIENEGUILLA",
  "longitude": -76.8108664,
  "latitude": -12.0754543,
  "name": "COLCA",
  "address": "CALLE GALILEA, MZ. N  LOTE 4 - CPR VILLA TOLEDO - COLCA"
}, {
  "state": "LIMA",
  "province": "LIMA",
  "city": "SAN JUAN DE MIRAFLORES",
  "longitude": -76.9591024,
  "latitude": -12.1605768,
  "name": "HOSPITAL MARIA AUXILIADORA",
  "address": "CALLE MIGUEL IGLESIAS N 968"
}, {
  "state": "LIMA",
  "province": "LIMA",
  "city": "SAN JUAN DE MIRAFLORES",
  "longitude": -76.9684425,
  "latitude": -12.1522561,
  "name": "MANUEL BARRETO",
  "address": "JR. MAN EL BARRETO S/N ZON  K-CIUDAD DE DIOS"
}, {
  "state": "LIMA",
  "province": "LIMA",
  "city": "CHORRILLOS",
  "longitude": -77.0235903,
  "latitude": -12.166438,
  "name": "CENTRO DE EMERGENCIAS SAN PEDRO DE LOS CHORRILLOS",
  "address": "CALLE FERROCARRIL S/N"
}, {
  "state": "LIMA",
  "province": "LIMA",
  "city": "LA VICTORIA",
  "longitude": -77.03213,
  "latitude": -12.0608274,
  "name": "MAX ARIAS SCHREIBER",
  "address": "JR. AN ON O RAYMON I 220 PRIMER PISO"
}, {
  "state": "LIMA",
  "province": "LIMA",
  "city": "LIMA",
  "longitude": -77.022701,
  "latitude": -12.0537765,
  "name": "JUAN PEREZ CARRANZA",
  "address": "JR. CUZCO 925"
}, {
  "state": "LIMA",
  "province": "LIMA",
  "city": "LA VICTORIA",
  "longitude": -76.9984109,
  "latitude": -12.0671117,
  "name": "EL PINO",
  "address": "AV. FLORAL 744"
}, {
  "state": "LIMA",
  "province": "LIMA",
  "city": "LA VICTORIA",
  "longitude": -77.0209069,
  "latitude": -12.0676604,
  "name": "EL PORVENIR",
  "address": "JR. SEBASTIAN BARRAN A 977"
}, {
  "state": "LIMA",
  "province": "LIMA",
  "city": "LA VICTORIA",
  "longitude": -77.0067738,
  "latitude": -12.0619424,
  "name": "SAN COSME",
  "address": "AV. BAUZATE Y MEZA - ALTURA DE LA CUADRA 23"
}, {
  "state": "LIMA",
  "province": "LIMA",
  "city": "SAN LUIS",
  "longitude": -76.9972532,
  "latitude": -12.0756274,
  "name": "SAN LUIS",
  "address": "CALLE RAÑL VILLARAN 332"
}, {
  "state": "LIMA",
  "province": "LIMA",
  "city": "SURQUILLO",
  "longitude": -77.022067,
  "latitude": -12.1182384,
  "name": "CENTRO DE SALUD SURQUILLO",
  "address": "JR. N RCISO DE LA COLIN  840"
}, {
  "state": "LIMA",
  "province": "LIMA",
  "city": "SURQUILLO",
  "longitude": -76.9990462,
  "latitude": -12.1212565,
  "name": "CENTRO DE SALUD SAN ATANACIO DE PEDREGAL",
  "address": "AV SAUCE MZ A1 LOTE 1"
}, {
  "state": "LIMA",
  "province": "LIMA",
  "city": "SAN BORJA",
  "longitude": -77.0023224,
  "latitude": -12.0843101,
  "name": "SAN JUAN MASIAS",
  "address": "JR DE LA HISTORIA MZ C LOTE 19 AAHH SAN JUAN MASIAS"
}, {
  "state": "LIMA",
  "province": "LIMA",
  "city": "SAN BORJA",
  "longitude": -76.9934694,
  "latitude": -12.1020977,
  "name": "CENTRO DE SALUD TODOS LOS SANTOS SAN BORJA",
  "address": "JR FRAN  SCHUBERT S/N ESQUIN  CON JR BOZOVICH"
}, {
  "state": "LIMA",
  "province": "LIMA",
  "city": "BREÑA",
  "longitude": -77.05366011,
  "latitude": -12.0569101,
  "name": "BREÑA",
  "address": "JIRON JR. N PO 1445"
}, {
  "state": "LIMA",
  "province": "LIMA",
  "city": "BREÑA",
  "longitude": -77.0481128,
  "latitude": -12.0539039,
  "name": "CHACRA COLORADA",
  "address": "JR. CARHUAZ 509"
}, {
  "state": "LIMA",
  "province": "LIMA",
  "city": "LIMA",
  "longitude": -77.0546325,
  "latitude": -12.0381579,
  "name": "CONDE DE LA VEGA BAJA",
  "address": "JR. CON E DE LA VEGA BAJA 488"
}, {
  "state": "LIMA",
  "province": "LIMA",
  "city": "LIMA",
  "longitude": -77.0722189,
  "latitude": -12.0359928,
  "name": "CENTRO DE SALUD MIRONES BAJO",
  "address": "JIRON JR. BRUN  TERREROS 144"
}, {
  "state": "LIMA",
  "province": "LIMA",
  "city": "LIMA",
  "longitude": -77.0623558,
  "latitude": -12.0411673,
  "name": "PUESTO DE SALUD RESCATE",
  "address": "JR PRATT S/N AAHH 11 DE OCTUBRE"
}, {
  "state": "LIMA",
  "province": "LIMA",
  "city": "LIMA",
  "longitude": -77.059864,
  "latitude": -12.036852,
  "name": "SANTA ROSA",
  "address": "CALLE CRESPO Y CASTILLO S/N ALTURA CUADRA 11 AV MORALES DUAREZ"
}, {
  "state": "LIMA",
  "province": "LIMA",
  "city": "LIMA",
  "longitude": -77.0387974,
  "latitude": -12.0428657,
  "name": "SAN SEBASTIAN",
  "address": "JR. ICA 774-778"
}, {
  "state": "LIMA",
  "province": "LIMA",
  "city": "LIMA",
  "longitude": -77.0673543,
  "latitude": -12.0509882,
  "name": "MIRONES",
  "address": "AVENIDA LUIS BRAYLE 13"
}, {
  "state": "LIMA",
  "province": "LIMA",
  "city": "LIMA",
  "longitude": -77.0821925,
  "latitude": -12.0512449,
  "name": "UNIDAD VECINAL NÑ 3",
  "address": "BLOCK N  1 UNIDAD VECINAL N  3"
}, {
  "state": "LIMA",
  "province": "LIMA",
  "city": "LIMA",
  "longitude": -77.0598619,
  "latitude": -12.0367561,
  "name": "CENTRO DE SALUD VILLA MARIA PERPETUO SOCORRO",
  "address": "JIRON JR. VILLA MARIA 745"
}, {
  "state": "LIMA",
  "province": "LIMA",
  "city": "LINCE",
  "longitude": -77.0318652,
  "latitude": -12.0820795,
  "name": "LINCE",
  "address": "JR. MAN EL CAN AMO 495"
}, {
  "state": "LIMA",
  "province": "LIMA",
  "city": "MAGDALENA DEL MAR",
  "longitude": -77.0686271,
  "latitude": -12.0886944,
  "name": "MAGDALENA",
  "address": "JR. JUNIN 322"
}, {
  "state": "LIMA",
  "province": "LIMA",
  "city": "SAN ISIDRO",
  "longitude": -77.0549116,
  "latitude": -12.1067332,
  "name": "SAN ISIDRO",
  "address": "AV. PEREZ ARAN BAR (DEL EJERCITO) 1756"
}, {
  "state": "LIMA",
  "province": "LIMA",
  "city": "SAN MIGUEL",
  "longitude": -77.0987145,
  "latitude": -12.0813992,
  "name": "SAN MIGUEL",
  "address": "AV LIBERTAD  AV LOS MOCHICAS S/N"
}, {
  "state": "LIMA",
  "province": "LIMA",
  "city": "SAN MIGUEL",
  "longitude": -77.083277,
  "latitude": -12.061614,
  "name": "HUACA PANDO",
  "address": "LOS SAUCES MZ B-II N VEN  ETAPA"
}, {
  "state": "LIMA",
  "province": "LIMA",
  "city": "MIRAFLORES",
  "longitude": -77.0366847,
  "latitude": -12.1189648,
  "name": "CENTRO DE SALUD SANTA CRUZ DE MIRAFLORES",
  "address": "AV. JOSE PARDO N  796 DISTRITO MIRAFLORES"
}, {
  "state": "LIMA",
  "province": "LIMA",
  "city": "JESUS MARIA",
  "longitude": -77.0530192,
  "latitude": -12.0779014,
  "name": "JESUS MARIA",
  "address": "AV. ARN LDO MÑRQUEZ 1750"
}, {
  "state": "LIMA",
  "province": "LIMA",
  "city": "LIMA",
  "longitude": -77.0231298,
  "latitude": -12.0531204,
  "name": "CENTRO ESPECIALIZADO DE REFERENCIA DE ITSS Y VIH/SIDA RAUL PATRUCCO PUIG",
  "address": "JR. HUAN A 927"
}, {
  "state": "LIMA",
  "province": "LIMA",
  "city": "SURQUILLO",
  "longitude": -76.9991488,
  "latitude": -12.1117911,
  "name": "INSTITUTO NACIONAL DE ENFERMEDADES NEOPLASICAS",
  "address": "AV. AN AMOS ESTE 2520, URB. CALERA DE LA MERCED"
}, {
  "state": "LIMA",
  "province": "LIMA",
  "city": "LURIGANCHO",
  "longitude": -76.9175274,
  "latitude": -11.9768397,
  "name": "CASA HUERTA LA CAMPIÑA",
  "address": "MZ A LT.13-14 SECT B AAHH CASA HUERTA LA CAMPINA"
}, {
  "state": "LIMA",
  "province": "LIMA",
  "city": "SANTA ANITA",
  "longitude": -76.9691707,
  "latitude": -12.0413621,
  "name": "SANTA ANITA",
  "address": "CALLE LOS MOCHICAS S/N PARQUE LAMPA DE ORO  COOP.CHAN AS DE AN AHUAYLAS-SAN A AN TA N MERO S/N"
}, {
  "state": "LIMA",
  "province": "LIMA",
  "city": "COMAS",
  "longitude": -77.0433316,
  "latitude": -11.9569237,
  "name": "SANTIAGO APOSTOL",
  "address": "JIRON JR DOS DE MAYO CUADRA 7 S/N NUMERO S/N"
}, {
  "state": "LIMA",
  "province": "LIMA",
  "city": "ATE",
  "longitude": -76.8076659,
  "latitude": -12.0225134,
  "name": "LA FRATERNIDAD",
  "address": "N CLEO DE SERV. ZON  S - HUAYCAN"
}, {
  "state": "LIMA",
  "province": "LIMA",
  "city": "COMAS",
  "longitude": -77.0656999,
  "latitude": -11.9347565,
  "name": "EL ALAMO",
  "address": "CALLE CALLE G - MZ Y, LOTE 1 - URB EL ALAMO 1ERA ETAPA"
}, {
  "state": "LIMA",
  "province": "LIMA",
  "city": "CARABAYLLO",
  "longitude": -77.0691136,
  "latitude": -11.8283581,
  "name": "JUAN PABLO II",
  "address": "JR. SAN FERN N O MZ N LT. 11 - AAHH JUAN PABLO II"
}, {
  "state": "LIMA",
  "province": "LIMA",
  "city": "SAN LUIS",
  "longitude": -76.9919825,
  "latitude": -12.0732277,
  "name": "POLICLINICO  SAN LUIS",
  "address": "AVENIDA CIRCUN ALACION N  2161 SAN LUIS"
}, {
  "state": "LIMA",
  "province": "LIMA",
  "city": "CHORRILLOS",
  "longitude": -77.0097828,
  "latitude": -12.1591581,
  "name": "ESTABLECIMIENTO DE SALUD DE LA 1Ñ BRIGADA DE LAS FUERZAS ESPECIALES DEL EJERCITO",
  "address": "AV. LAS PALMAS S/N CHORRILLOS N MERO S/N"
}, {
  "state": "LIMA",
  "province": "LIMA",
  "city": "SANTIAGO DE SURCO",
  "longitude": -76.9886831,
  "latitude": -12.1507658,
  "name": "POLICLINICO PROCERES",
  "address": "AV. LOS PROCERES  440/ MAN EL PERES TUDELA BLOCK \"D\" \"B\""
}, {
  "state": "LIMA",
  "province": "LIMA",
  "city": "CHORRILLOS",
  "longitude": -77.0046413,
  "latitude": -12.1783831,
  "name": "POLICLINICO JUAN JOSE RODRIGUEZ LAZO",
  "address": "AV.GUARDIA PERUAN  CUADRA 8 S/N CHORRILLOS N MERO S/N"
}, {
  "state": "LIMA",
  "province": "LIMA",
  "city": "LIMA",
  "longitude": -77.03923833,
  "latitude": -12.06264167,
  "name": "POLICLINICO CHINCHA",
  "address": "JIRON JR. CHINCHA 226"
}, {
  "state": "LIMA",
  "province": "LIMA",
  "city": "SURQUILLO",
  "longitude": -77.02400451,
  "latitude": -12.11349791,
  "name": "SISTEMA METROPOLITANO DE LA SOLIDARIDAD / SOLIDARIDAD SALUD SURQUILLO",
  "address": "AV. ANGAMOS 714-734"
}, {
  "state": "LIMA",
  "province": "LIMA",
  "city": "JESUS MARIA",
  "longitude": -77.0383011,
  "latitude": -12.0726176,
  "name": "POLICLINICO PABLO BERMUDEZ",
  "address": "JIRON JR.PABLO BERMUDEZ N  266"
}, {
  "state": "LIMA",
  "province": "LIMA",
  "city": "RIMAC",
  "longitude": -77.0347863,
  "latitude": -12.0368677,
  "name": "POLICLINICO FRANCISCO PIZARRO",
  "address": "AV. FRAN ISCO PIZARRO 585"
}, {
  "state": "LIMA",
  "province": "LIMA",
  "city": "CARABAYLLO",
  "longitude": -76.9873477,
  "latitude": -11.792902,
  "name": "SISTEMA METROPOLITANO DE LA SOLIDARIDAD / SOLIDARIDAD SALUD CARABAYLLO",
  "address": "AVENIDA AV SAN MARTIN CUADRA DOS S/N CARABAYLLO N MERO S/N"
}, {
  "state": "LIMA",
  "province": "LIMA",
  "city": "SAN MARTIN DE PORRES",
  "longitude": -77.0592689,
  "latitude": -12.0099265,
  "name": "POLICLINICO FIORI",
  "address": "DISTRITO DE SAN MARTIN DE PORRES CEN RO COMERCIAL FIORI BLOCK \"C\" - KM 13.5 PAN MERICAN  N RTE"
}, {
  "state": "LIMA",
  "province": "LIMA",
  "city": "VILLA MARIA DEL TRIUNFO",
  "longitude": -76.9413172,
  "latitude": -12.159947,
  "name": "POLICLINICO VILLA MARÑA",
  "address": "AVENIDA VILLA MARIA 1222 VMT"
}, {
  "state": "LIMA",
  "province": "LIMA",
  "city": "LURIGANCHO",
  "longitude": -76.922245,
  "latitude": -11.996305,
  "name": "VILLA MERCEDES",
  "address": "AAHH EL PARAISO DE CAJAMARQUILLA, MZ. L, LOTE 20"
}, {
  "state": "LIMA",
  "province": "LIMA",
  "city": "SANTA ANITA",
  "longitude": -76.947995,
  "latitude": -12.04757833,
  "name": "ESSALUD - CLINICA GERIATRICA SAN ISIDRO LABRADOR",
  "address": "AV. CARRETERA CEN RAL 1345, KM. 3.5"
}, {
  "state": "LIMA",
  "province": "LIMA",
  "city": "CARABAYLLO",
  "longitude": -77.003039,
  "latitude": -11.881205,
  "name": "SU MAJESTAD HIROITO",
  "address": "CALLE CALLE TOKIO MZ D LT 10 AAHH SU MAJESTAD HIROITO"
}, {
  "state": "LIMA",
  "province": "LIMA",
  "city": "COMAS",
  "longitude": -77.0215085,
  "latitude": -11.9230139,
  "name": "LUIS ALBERTO BAZAGOITIA CARDENAS",
  "address": "JIRON JIRON SAN OS CHOCAN  S/N AA.HH. N EVA ESPERAN A N MERO S/N"
}, {
  "state": "LIMA",
  "province": "LIMA",
  "city": "PUENTE PIEDRA",
  "longitude": -77.07488297,
  "latitude": -11.89620405,
  "name": "POSTA MEDICA PNP PUENTE PIEDRA",
  "address": "ALTURA KM 27.5 PAN MERICAN  N RTE"
}, {
  "state": "LIMA",
  "province": "LIMA",
  "city": "ATE",
  "longitude": -76.8191242,
  "latitude": -12.0315691,
  "name": "FRATERNIDAD NIÑO JESUS ZONA X",
  "address": "UCV 236 ZON  X HUAYCAN"
}, {
  "state": "LIMA",
  "province": "LIMA",
  "city": "EL AGUSTINO",
  "longitude": -77.001847,
  "latitude": -12.057135,
  "name": "CERRO EL AGUSTINO",
  "address": "AVENIDA EL AGUSTIN  S/N PARTE ALTA CERRO EL AGUSTIN  ALT. CDRA.  DE LA AV. RIVA AGUERO N MERO S/N"
}, {
  "state": "LIMA",
  "province": "LIMA",
  "city": "SAN JUAN DE MIRAFLORES",
  "longitude": -76.9623905,
  "latitude": -12.1467868,
  "name": "PS MARIANNE PREUSS DE STARK",
  "address": "MZ 78 LT5 (LOS LAURELES) IN ERSECCION CALLE Q1 Y CALLE 10 SECTOR LOS AN ELES PAMPLON  ALTA"
}, {
  "state": "LIMA",
  "province": "LIMA",
  "city": "LIMA",
  "longitude": -77.0405391,
  "latitude": -12.0580088,
  "name": "POLICLINICO COIP",
  "address": "AVENIDA ESPAÑA N MERO 323"
}, {
  "state": "LIMA",
  "province": "LIMA",
  "city": "CHORRILLOS",
  "longitude": -77.0190155,
  "latitude": -12.1567124,
  "name": "POLICLINICO MILITAR CHORRILLOS",
  "address": "AV: ESCUELA MILITAR S/N VILLA MILITAR OESTE"
}, {
  "state": "LIMA",
  "province": "LIMA",
  "city": "LOS OLIVOS",
  "longitude": -77.0656159,
  "latitude": -11.97723,
  "name": "HOSPITAL MUNICIPAL LOS OLIVOS",
  "address": "AVENIDA AV N RAN AL 318"
}, {
  "state": "LIMA",
  "province": "LIMA",
  "city": "CARABAYLLO",
  "longitude": -77.0342341,
  "latitude": -11.9008135,
  "name": "CENTRO DE SALUD MENTAL COMUNITARIO CARABAYLLO",
  "address": "AV. SAN MARTÑN CDA. 5 S/N  URB. SAN A ISABEL N MERO S/N"
}, {
  "state": "CALLAO",
  "province": "CALLAO",
  "city": "CALLAO",
  "longitude": -77.1076748,
  "latitude": -12.0491962,
  "name": "ALBERTO LEONARDO BARTON THOMPSON",
  "address": "AVENIDA AVENIDA ARGEN IN  3525"
}, {
  "state": "CALLAO",
  "province": "CALLAO",
  "city": "CALLAO",
  "longitude": -77.12024461,
  "latitude": -12.04253586,
  "name": "NESTOR GAMBETTA",
  "address": "AV. ALAMEDA S/N PP.JJ. GAMBETTA ALTA N MERO S/N"
}, {
  "state": "CALLAO",
  "province": "CALLAO",
  "city": "VENTANILLA",
  "longitude": -77.12271214,
  "latitude": -11.82855773,
  "name": "CENTRO DE SALUD VILLA LOS REYES",
  "address": "MZA. N   S/N SECTOR 1 AA.HH. VILLA LOS REYES"
}, {
  "state": "CALLAO",
  "province": "CALLAO",
  "city": "CALLAO",
  "longitude": -77.13418214,
  "latitude": -11.94257438,
  "name": "C.S. MARQUEZ",
  "address": "AV. LOS ALAMOS  S/N - MARQUEZ"
}, {
  "state": "CALLAO",
  "province": "CALLAO",
  "city": "CALLAO",
  "longitude": -77.13692002,
  "latitude": -12.02215478,
  "name": "CENTRO DE SALUD ACAPULCO",
  "address": "AV. JOSE GALVEZ S/N CMTE.8 - PP.JJ. ACAPULCO N MERO S/N"
}, {
  "state": "CALLAO",
  "province": "CALLAO",
  "city": "VENTANILLA",
  "longitude": -77.124338,
  "latitude": -11.886491,
  "name": "POLICLINICO HERMANA MARIA DONROSE SUTMÑLLER",
  "address": "AVENIDA AVENIDA GON ALES GAN ZA S/N I SECTOR IZQUIERDO URB AN ON O MOREN  DE CACERES N MERO S/N"
}, {
  "state": "CALLAO",
  "province": "CALLAO",
  "city": "CARMEN DE LA LEGUA-REYNOSO",
  "longitude": -77.09846168,
  "latitude": -12.04273444,
  "name": "HOSPITAL SAN JOSE",
  "address": "JIRON JR. LAS MAGN LIAS 475"
}, {
  "state": "CALLAO",
  "province": "CALLAO",
  "city": "CALLAO",
  "longitude": -77.097146,
  "latitude": -12.0150475,
  "name": "ESSALUD - RED ASISTENCIAL SABOGAL - CAP II LUIS NEGREIROS VEGA",
  "address": "AVENIDA TOMAS VALLE CDRA 34 S/N"
}, {
  "state": "CALLAO",
  "province": "CALLAO",
  "city": "BELLAVISTA",
  "longitude": -77.10633786,
  "latitude": -12.06171682,
  "name": "BELLAVISTA PERU COREA",
  "address": "MZ. F-5 ZON  2 - CIUDAD DEL PESCADOR"
}, {
  "state": "CALLAO",
  "province": "CALLAO",
  "city": "VENTANILLA",
  "longitude": -77.1419038,
  "latitude": -11.83265968,
  "name": "MATERNO INFANTIL PACHACUTEC  PERU-COREA",
  "address": "MZ. X LTE. 1 AA.HH HIROSHIMA"
}, {
  "state": "CALLAO",
  "province": "CALLAO",
  "city": "BELLAVISTA",
  "longitude": -77.124813,
  "latitude": -12.063792,
  "name": "NAC. DANIEL A. CARRION",
  "address": "AV. GUARDIA CHALACA N  2176"
}, {
  "state": "CALLAO",
  "province": "CALLAO",
  "city": "CALLAO",
  "longitude": -77.0979946,
  "latitude": -12.0157493,
  "name": "COMPLEJO ASISTENCIAL LUIS NEGREIROS VEGA",
  "address": "AV. TOMAS VALLE DRA.39 - URB. VIPOL"
}, {
  "state": "CALLAO",
  "province": "CALLAO",
  "city": "CALLAO",
  "longitude": -77.13737167,
  "latitude": -12.03501833,
  "name": "HOSPITAL DE LA BASE NAVAL DEL CALLAO",
  "address": "AV. CON RALMIRAN E MORA S/N BASE N VAL DEL CALLAO"
}, {
  "state": "MADRE DE DIOS",
  "province": "TAMBOPATA",
  "city": "TAMBOPATA",
  "longitude": -69.18308833,
  "latitude": -12.60136167,
  "name": "HOSPITAL SANTA ROSA",
  "address": "JIRON JR. CAJAMARCA N  171"
}, {
  "state": "MADRE DE DIOS",
  "province": "TAMBOPATA",
  "city": "TAMBOPATA",
  "longitude": -69.19880167,
  "latitude": -12.58139667,
  "name": "HOSPITL I VICTOR ALFREDO LAZO PERALTA",
  "address": "AV. AN RES AVELIN  CACERES N  560"
}, {
  "state": "MADRE DE DIOS",
  "province": "TAMBOPATA",
  "city": "LAS PIEDRAS",
  "longitude": -69.16933813,
  "latitude": -12.58554618,
  "name": "EL TRIUNFO",
  "address": "CARRETERA CARRETERA MALDON DO-IBERIA KM 1 S/N N MERO S/N"
}, {
  "state": "MADRE DE DIOS",
  "province": "TAMBOPATA",
  "city": "TAMBOPATA",
  "longitude": -69.17360577,
  "latitude": -12.59603805,
  "name": "AA.HH. PUEBLO VIEJO",
  "address": "CALLE CALLE FAUSTIN  MALDON DO CUADRA N  2"
}, {
  "state": "LA LIBERTAD",
  "province": "TRUJILLO",
  "city": "HUANCHACO",
  "longitude": -79.1184937,
  "latitude": -8.07878339,
  "name": "HUANCHACO",
  "address": "JIRON JIRON ATAHUALPA N  405"
}, {
  "state": "LA LIBERTAD",
  "province": "ASCOPE",
  "city": "PAIJAN",
  "longitude": -79.29789,
  "latitude": -7.73546833,
  "name": "C.S. PAIJAN",
  "address": "PAN MERICAN  N RTE S/N SECTOR MAN O CAPAC N MERO S/N"
}, {
  "state": "LA LIBERTAD",
  "province": "TRUJILLO",
  "city": "TRUJILLO",
  "longitude": -79.0349299,
  "latitude": -8.1110707,
  "name": "HOSPITAL I ALBRECHT",
  "address": "AV JESUS DE N ZARETH S/N RESIDEN IAL ALBRECHT"
}, {
  "state": "LA LIBERTAD",
  "province": "VIRU",
  "city": "VIRU",
  "longitude": -78.7527095,
  "latitude": -8.4142357,
  "name": "VIRU ESSALUD \"VICTOR SOLES GARCIA\"",
  "address": "AVENIDA AVENIDA VICTOR RAUL S/N SECTOR SAN LUIS N MERO S/N"
}, {
  "state": "LA LIBERTAD",
  "province": "OTUZCO",
  "city": "AGALLPAMPA",
  "longitude": -78.43390667,
  "latitude": -7.87153,
  "name": "CUSHCANDAY",
  "address": "AGALLPAMPA"
}, {
  "state": "LA LIBERTAD",
  "province": "SANTIAGO DE CHUCO",
  "city": "SANTIAGO DE CHUCO",
  "longitude": -78.23051,
  "latitude": -8.214235,
  "name": "HUARAN UNINGAMBAL",
  "address": "CASERIO HUARAN UN N AMBAL ALTO"
}, {
  "state": "LA LIBERTAD",
  "province": "OTUZCO",
  "city": "AGALLPAMPA",
  "longitude": -78.50272833,
  "latitude": -7.99492,
  "name": "MOTIL",
  "address": "CALLE MIRAFLORES S/N N MERO S/N"
}, {
  "state": "LA LIBERTAD",
  "province": "SANTIAGO DE CHUCO",
  "city": "SANTIAGO DE CHUCO",
  "longitude": -78.220485,
  "latitude": -8.17736167,
  "name": "SURUVARA",
  "address": "CASERIO SURUVARA"
}, {
  "state": "LA LIBERTAD",
  "province": "ASCOPE",
  "city": "CHOCOPE",
  "longitude": -79.222181,
  "latitude": -7.792812,
  "name": "HOSPITAL II CHOCOPE",
  "address": "PANAMERICANA  NORTE KM N  604"
}, {
  "state": "LA LIBERTAD",
  "province": "SANTIAGO DE CHUCO",
  "city": "SANTIAGO DE CHUCO",
  "longitude": -78.3491,
  "latitude": -8.29517,
  "name": "OSAIGUE",
  "address": "CASERIO OSAIGUE"
}, {
  "state": "LA LIBERTAD",
  "province": "TRUJILLO",
  "city": "SALAVERRY",
  "longitude": -78.97673867,
  "latitude": -8.22173708,
  "name": "SALAVERRY",
  "address": "CALLE LIBERTAD N  417"
}, {
  "state": "LA LIBERTAD",
  "province": "OTUZCO",
  "city": "AGALLPAMPA",
  "longitude": -78.51724167,
  "latitude": -7.96409167,
  "name": "CARATA",
  "address": "CALLE PRIN IPAL S/N N MERO S/N"
}, {
  "state": "LA LIBERTAD",
  "province": "TRUJILLO",
  "city": "LA ESPERANZA",
  "longitude": -79.05245119,
  "latitude": -8.05638833,
  "name": "WICHANZAO",
  "address": "MZ. 33 LOTE 2 SECCION II"
}, {
  "state": "LA LIBERTAD",
  "province": "SANCHEZ CARRION",
  "city": "MARCABAL",
  "longitude": -77.97347656,
  "latitude": -7.74284817,
  "name": "AGOCAS",
  "address": "CASERIO SHAYAPUN O"
}, {
  "state": "LA LIBERTAD",
  "province": "TRUJILLO",
  "city": "LA ESPERANZA",
  "longitude": -79.05803067,
  "latitude": -8.05433251,
  "name": "HOSPITAL DE ALTA COMPLEJIDAD DE LA LIBERTAD VIRGEN DE LA PUERTA",
  "address": "AV. N  05 Y N  02, URB PARQUE IN USTRIAL"
}, {
  "state": "LA LIBERTAD",
  "province": "OTUZCO",
  "city": "CHARAT",
  "longitude": -78.480955,
  "latitude": -7.76517667,
  "name": "CALLANCAS",
  "address": "LA PAMPA S/N N MERO S/N"
}, {
  "state": "LA LIBERTAD",
  "province": "SANTIAGO DE CHUCO",
  "city": "SITABAMBA",
  "longitude": -77.70651167,
  "latitude": -7.99747667,
  "name": "USHNOVAL",
  "address": "AVENIDA AVENIDA SAN PEDRO S/N N MERO S/N"
}, {
  "state": "LA LIBERTAD",
  "province": "TRUJILLO",
  "city": "EL PORVENIR",
  "longitude": -79.01880959,
  "latitude": -8.06685225,
  "name": "ALTO  TRUJILLO",
  "address": "BARRIO 3 MZ F LOTE 1 Y 2"
}, {
  "state": "LA LIBERTAD",
  "province": "TRUJILLO",
  "city": "LA ESPERANZA",
  "longitude": -79.0540006,
  "latitude": -8.0749737,
  "name": "HOSPITAL I - LA ESPERANZA",
  "address": "JIRON JIRON LIMA CUADRA 4 SECTOR SAN A VERÑN CA"
}, {
  "state": "LA LIBERTAD",
  "province": "SANCHEZ CARRION",
  "city": "HUAMACHUCO",
  "longitude": -78.04389675,
  "latitude": -7.817422,
  "name": "HOSPITAL DE APOYO LEONCIO PRADO",
  "address": "AVENIDA 10 DE JULIO N  209"
}, {
  "state": "LA LIBERTAD",
  "province": "OTUZCO",
  "city": "USQUIL",
  "longitude": -78.41855333,
  "latitude": -7.81577667,
  "name": "USQUIL",
  "address": "JIRON N GAL S/N N MERO S/N"
}, {
  "state": "LA LIBERTAD",
  "province": "TRUJILLO",
  "city": "TRUJILLO",
  "longitude": -79.04841776,
  "latitude": -8.11307335,
  "name": "IRO",
  "address": "MZ P LOTE 7-A SECTOR N TASHA ALTA"
}, {
  "state": "LA LIBERTAD",
  "province": "OTUZCO",
  "city": "AGALLPAMPA",
  "longitude": -78.42769167,
  "latitude": -7.90091167,
  "name": "PAIHUAL",
  "address": "CASERIO PAIHUAL N  83"
}, {
  "state": "LA LIBERTAD",
  "province": "TRUJILLO",
  "city": "MOCHE",
  "longitude": -78.98932943,
  "latitude": -8.18523488,
  "name": "HOSPITAL DISTRITAL ALTO MOCHE-WALTER CRUZ VILCA",
  "address": "MZ N  37 LOTE 01"
}, {
  "state": "LA LIBERTAD",
  "province": "OTUZCO",
  "city": "CHARAT",
  "longitude": -78.53560667,
  "latitude": -7.77253667,
  "name": "CAYANCHAL",
  "address": "CASERIO CAYAN HAL"
}, {
  "state": "LA LIBERTAD",
  "province": "VIRU",
  "city": "CHAO",
  "longitude": -78.48040137,
  "latitude": -8.43475868,
  "name": "CHOROBAL",
  "address": "CASERIO CHOROBAL"
}, {
  "state": "LA LIBERTAD",
  "province": "OTUZCO",
  "city": "MACHE",
  "longitude": -78.53262667,
  "latitude": -8.008005,
  "name": "LLUIN",
  "address": "CEN RO POBLADO LLUIN"
}, {
  "state": "LA LIBERTAD",
  "province": "OTUZCO",
  "city": "OTUZCO",
  "longitude": -78.5650786,
  "latitude": -7.90529148,
  "name": "HOSPITAL DE APOYO OTUZCO ELPIDIO BEROVIDES PEREZ",
  "address": "JIRON JR. PROGRESO N  385"
}, {
  "state": "LA LIBERTAD",
  "province": "VIRU",
  "city": "VIRU",
  "longitude": -78.8078677,
  "latitude": -8.40943349,
  "name": "CALIFORNIA",
  "address": "CAKLLE TUPAC AMARU MZ. E LOTE 5"
}, {
  "state": "LA LIBERTAD",
  "province": "VIRU",
  "city": "VIRU",
  "longitude": -78.84787104,
  "latitude": -8.46761266,
  "name": "HUANCAQUITO BAJO",
  "address": "BARRIO EL PROGRESO"
}, {
  "state": "LA LIBERTAD",
  "province": "TRUJILLO",
  "city": "TRUJILLO",
  "longitude": -79.01030684,
  "latitude": -8.10346913,
  "name": "HOSPITAL DE ESPECIALIDADES BASICAS LA NORIA",
  "address": "AVENIDA AVENIDA BLAS PASCAL N  124 URBAN ZACION LA N RIA"
}, {
  "state": "LA LIBERTAD",
  "province": "SANTIAGO DE CHUCO",
  "city": "SITABAMBA",
  "longitude": -77.78289167,
  "latitude": -8.03017833,
  "name": "CHAGAVARA",
  "address": "CASERIO CHAGAVARA"
}, {
  "state": "LA LIBERTAD",
  "province": "PATAZ",
  "city": "PATAZ",
  "longitude": -77.69062793,
  "latitude": -7.60997305,
  "name": "NIMPANA",
  "address": "N MPAN  S/N N MERO S/N"
}, {
  "state": "LA LIBERTAD",
  "province": "VIRU",
  "city": "GUADALUPITO",
  "longitude": -78.62486418,
  "latitude": -8.95249529,
  "name": "GUADALUPITO",
  "address": "CALLE CALLE JERUSALEN N  11"
}, {
  "state": "LA LIBERTAD",
  "province": "TRUJILLO",
  "city": "TRUJILLO",
  "longitude": -79.01726399,
  "latitude": -8.1002909,
  "name": "CENTRO DE SALUD LA UNION",
  "address": " AVENIDA SAN A N  1021-EL MOLIN  AVENIDA SAN A N  1021-EL MOLIN"
}, {
  "state": "LA LIBERTAD",
  "province": "SANCHEZ CARRION",
  "city": "MARCABAL",
  "longitude": -78.05819043,
  "latitude": -7.69729791,
  "name": "NARANJOPAMPA",
  "address": "CASERIO N RAN OPAMPA"
}, {
  "state": "LA LIBERTAD",
  "province": "VIRU",
  "city": "VIRU",
  "longitude": -78.67919934,
  "latitude": -8.37955759,
  "name": "EL NIÑO",
  "address": "EL N ÑO S/N N MERO S/N"
}, {
  "state": "LA LIBERTAD",
  "province": "SANCHEZ CARRION",
  "city": "COCHORCO",
  "longitude": -77.77408369,
  "latitude": -7.75771641,
  "name": "MOLINO VIEJO",
  "address": "CEN RO POBLADO MOLIN  VIEJO"
}, {
  "state": "LA LIBERTAD",
  "province": "OTUZCO",
  "city": "PARANDAY",
  "longitude": -78.70907833,
  "latitude": -7.88446833,
  "name": "PARANDAY",
  "address": "TUPAC AMARU S/N N MERO S/N"
}, {
  "state": "LA LIBERTAD",
  "province": "SANCHEZ CARRION",
  "city": "COCHORCO",
  "longitude": -77.7069237,
  "latitude": -7.75089204,
  "name": "ARAGOSTAY",
  "address": "CASERIO DE ARAGOSTAY"
}, {
  "state": "LA LIBERTAD",
  "province": "TRUJILLO",
  "city": "FLORENCIA DE MORA",
  "longitude": -79.02560454,
  "latitude": -8.08771881,
  "name": "HOSPITAL DISTRITAL EL ESFUERZO DE FLORENCIA DE MORA",
  "address": "CALLE CALLE 18 DE MAYO N  1356"
}, {
  "state": "LA LIBERTAD",
  "province": "ASCOPE",
  "city": "CHICAMA",
  "longitude": -79.14476395,
  "latitude": -7.84355517,
  "name": "C.S.M.I. CHICAMA",
  "address": "JIRON JIRON GRAU N  495"
}, {
  "state": "LA LIBERTAD",
  "province": "TRUJILLO",
  "city": "TRUJILLO",
  "longitude": -79.01947678,
  "latitude": -8.13429073,
  "name": "REGIONAL DE ENFERMEDADES NEOPLASICAS - NORTE - DR. LUIS PINILLOS GANOZA",
  "address": "CARRETERA CARRETERA PAN MERICAN  N RTE KM 558"
}, {
  "state": "LA LIBERTAD",
  "province": "PACASMAYO",
  "city": "SAN PEDRO DE LLOC",
  "longitude": -79.50385659,
  "latitude": -7.42683864,
  "name": "SANTA CATALINA",
  "address": "JIRON JR. AN RES RAZURI N  711"
}, {
  "state": "LA LIBERTAD",
  "province": "VIRU",
  "city": "CHAO",
  "longitude": -78.68143606,
  "latitude": -8.5422993,
  "name": "PUENTE CHAO",
  "address": "AV. ALAN GARCIA S/N N MERO S/N"
}, {
  "state": "LA LIBERTAD",
  "province": "OTUZCO",
  "city": "AGALLPAMPA",
  "longitude": -78.41093167,
  "latitude": -7.97459,
  "name": "PUEBLO LIBRE",
  "address": "PUEBLO LIBRE N  068"
}, {
  "state": "LA LIBERTAD",
  "province": "SANCHEZ CARRION",
  "city": "MARCABAL",
  "longitude": -77.92129452,
  "latitude": -7.66657882,
  "name": "LLUCHUBAMBA",
  "address": "CASERIO LLUCHUBAMBA S/N N MERO S/N"
}, {
  "state": "LA LIBERTAD",
  "province": "SANCHEZ CARRION",
  "city": "MARCABAL",
  "longitude": -77.88189,
  "latitude": -7.70452,
  "name": "SHITA",
  "address": "CASERÑO SHITA S/N N MERO S/N"
}, {
  "state": "LA LIBERTAD",
  "province": "PACASMAYO",
  "city": "GUADALUPE",
  "longitude": -79.47441,
  "latitude": -7.241255,
  "name": "HOSPITAL DE APOYO TOMAS LAFORA",
  "address": "JIRON JR. LA VICTORIA S/N N MERO S/N"
}, {
  "state": "LA LIBERTAD",
  "province": "TRUJILLO",
  "city": "TRUJILLO",
  "longitude": -79.0120577,
  "latitude": -8.0996179,
  "name": "HOSPITAL BASE VICTOR LAZARTE ECHEGARAY",
  "address": "PROLON ACION UN ON 1350"
}, {
  "state": "LA LIBERTAD",
  "province": "VIRU",
  "city": "VIRU",
  "longitude": -78.8308437,
  "latitude": -8.43229363,
  "name": "SANTA ELENA",
  "address": "AV. VICTOR RAUL MZ.2 LOTE 6"
}, {
  "state": "LA LIBERTAD",
  "province": "OTUZCO",
  "city": "SALPO",
  "longitude": -78.59021167,
  "latitude": -8.04456667,
  "name": "BELLAVISTA",
  "address": "CASERIO BELLAVISTA S/N N MERO S/N"
}, {
  "state": "LA LIBERTAD",
  "province": "OTUZCO",
  "city": "LA CUESTA",
  "longitude": -78.70507333,
  "latitude": -7.919055,
  "name": "LA CUESTA",
  "address": "PLAZA PLAZA DE ARMAS LA CUESTA S/N N MERO S/N"
}, {
  "state": "LA LIBERTAD",
  "province": "TRUJILLO",
  "city": "TRUJILLO",
  "longitude": -79.0071627,
  "latitude": -8.11303099,
  "name": "EL BOSQUE",
  "address": "CALLE CALLE JULIA CODESIDO N  1082"
}, {
  "state": "LA LIBERTAD",
  "province": "OTUZCO",
  "city": "USQUIL",
  "longitude": -78.429465,
  "latitude": -7.85641667,
  "name": "CHOCONDAY",
  "address": "CHOCON AY N  09"
}, {
  "state": "LA LIBERTAD",
  "province": "TRUJILLO",
  "city": "LA ESPERANZA",
  "longitude": -79.05401551,
  "latitude": -8.06921193,
  "name": "HOSPITAL DISTRITAL JERUSALEN",
  "address": "AVENIDA AVENIDA LOS CEDROS CUADRA 4 C/S"
}, {
  "state": "LA LIBERTAD",
  "province": "PACASMAYO",
  "city": "PACASMAYO",
  "longitude": -79.5639532,
  "latitude": -7.4048452,
  "name": "HOSPITAL I - PACASMAYO",
  "address": "AVENIDA MARISCAL CÑCERES N  701"
}, {
  "state": "LA LIBERTAD",
  "province": "OTUZCO",
  "city": "CHARAT",
  "longitude": -78.46747667,
  "latitude": -7.84708833,
  "name": "LA RAMADA",
  "address": "CEN RO POBLADO MEN R LA RAMADA"
}, {
  "state": "LA LIBERTAD",
  "province": "VIRU",
  "city": "CHAO",
  "longitude": -78.67984014,
  "latitude": -8.51244253,
  "name": "NUEVO CHAO",
  "address": "MZ. I, LOTE 02-N EVO CHAO"
}, {
  "state": "LA LIBERTAD",
  "province": "CHEPEN",
  "city": "CHEPEN",
  "longitude": -79.43528369,
  "latitude": -7.22198826,
  "name": "HOSPITAL DE APOYO CHEPEN",
  "address": "AV. 28 DE JULIO S/N N MERO S/N"
}, {
  "state": "LA LIBERTAD",
  "province": "OTUZCO",
  "city": "HUARANCHAL",
  "longitude": -78.49737,
  "latitude": -7.74420167,
  "name": "HUAYOBAMBA",
  "address": "CALLE CALLE TRUJILLO S/N N MERO S/N"
}, {
  "state": "LA LIBERTAD",
  "province": "OTUZCO",
  "city": "SALPO",
  "longitude": -78.68470833,
  "latitude": -8.00103833,
  "name": "RAYAMPAMPA",
  "address": "CASERÑO RAYAMPAMPA"
}, {
  "state": "LA LIBERTAD",
  "province": "OTUZCO",
  "city": "OTUZCO",
  "longitude": -78.61842,
  "latitude": -7.911375,
  "name": "PAMPA GRANDE",
  "address": "CASERIO PAMPA GRAN E S/N N MERO S/N"
}, {
  "state": "LA LIBERTAD",
  "province": "SANTIAGO DE CHUCO",
  "city": "MOLLEPATA",
  "longitude": -77.95627167,
  "latitude": -8.17070333,
  "name": "LA YEGUADA",
  "address": "CASERIO LAYEGUADA"
}, {
  "state": "LA LIBERTAD",
  "province": "SANCHEZ CARRION",
  "city": "MARCABAL",
  "longitude": -77.99726693,
  "latitude": -7.72782218,
  "name": "CHAQUILBAMBA",
  "address": "AVENIDA TUPAC AMARU # 115 CEN RO POBLADO CHAQUILBAMBA"
}, {
  "state": "LA LIBERTAD",
  "province": "BOLIVAR",
  "city": "BOLIVAR",
  "longitude": -77.70568964,
  "latitude": -7.15162358,
  "name": "HOSPITAL PROVINCIAL DE BOLIVAR",
  "address": "AV. DOS DE MAYO N  120"
}, {
  "state": "LA LIBERTAD",
  "province": "OTUZCO",
  "city": "MACHE",
  "longitude": -78.54563167,
  "latitude": -8.078975,
  "name": "CRUZ DE MAYO",
  "address": "CASERIO CRUZ DE MAYO"
}, {
  "state": "LA LIBERTAD",
  "province": "VIRU",
  "city": "CHAO",
  "longitude": -78.63143683,
  "latitude": -8.48009743,
  "name": "BUENA VISTA",
  "address": "BUEN  VISTA"
}, {
  "state": "LA LIBERTAD",
  "province": "ASCOPE",
  "city": "CASA GRANDE",
  "longitude": -79.1896199,
  "latitude": -7.7473482,
  "name": "CENTRO MEDICO ESPECIALIZADO CASA GRANDE",
  "address": "PROLON ACION AV. ATAHUALPA MZ 15 LOTE 01 URB. 8 DE SETIEMBRE"
}, {
  "state": "LA LIBERTAD",
  "province": "TRUJILLO",
  "city": "VICTOR LARCO HERRERA",
  "longitude": -79.04842534,
  "latitude": -8.13853166,
  "name": "HOSPITAL DISTRITAL VISTA ALEGRE",
  "address": "JIRON JIRON BERN RDO ALCEDO N  193"
}, {
  "state": "LA LIBERTAD",
  "province": "OTUZCO",
  "city": "USQUIL",
  "longitude": -78.32420333,
  "latitude": -7.87146833,
  "name": "CANIBAMBA BAJO",
  "address": "CASERIO CAN BAMBA BAJO S/N N MERO S/N"
}, {
  "state": "LA LIBERTAD",
  "province": "OTUZCO",
  "city": "HUARANCHAL",
  "longitude": -78.44383333,
  "latitude": -7.68988667,
  "name": "HUARANCHAL",
  "address": "CALLE CALLE MIRAFLORES S/N N MERO S/N"
}, {
  "state": "LA LIBERTAD",
  "province": "TRUJILLO",
  "city": "LAREDO",
  "longitude": -78.95695624,
  "latitude": -8.08588907,
  "name": "HOSPITAL DISTRITAL LAREDO",
  "address": "AVENIDA AN EN R ORREGO S/N URB. CEN EN RIO N MERO S/N"
}, {
  "state": "LA LIBERTAD",
  "province": "CHEPEN",
  "city": "CHEPEN",
  "longitude": -79.436401,
  "latitude": -7.225865,
  "name": "HOSPITAL I CHEPEN ESSALUD",
  "address": "AV. LAS PALMERAS S/N - URB HUAN HACO N MERO S/N"
}, {
  "state": "LA LIBERTAD",
  "province": "OTUZCO",
  "city": "OTUZCO",
  "longitude": -78.52746167,
  "latitude": -7.93176333,
  "name": "ALLACDAY",
  "address": "CASERIO ALLACDAY S/N N MERO S/N"
}, {
  "state": "LA LIBERTAD",
  "province": "TRUJILLO",
  "city": "EL PORVENIR",
  "longitude": -78.99735656,
  "latitude": -8.08325535,
  "name": "HOSPITAL DISTRITAL DE EL PORVENIR SANTA ISABEL",
  "address": "GABRIEL AGUILAR N  1605"
}, {
  "state": "LA LIBERTAD",
  "province": "ASCOPE",
  "city": "SANTIAGO DE CAO",
  "longitude": -79.220695,
  "latitude": -7.88422667,
  "name": "P. S. SANTA ROSA DE CARTAVIO",
  "address": "PJ. SAN A ROSA MZ 12 LOTE 15 - CARTAVIO"
}, {
  "state": "LA LIBERTAD",
  "province": "OTUZCO",
  "city": "OTUZCO",
  "longitude": -78.56059,
  "latitude": -7.90194333,
  "name": "RAMON CASTILLA",
  "address": "JIRON JR  RAMON ARGOMEDO S/N N MERO S/N"
}, {
  "state": "LA LIBERTAD",
  "province": "VIRU",
  "city": "VIRU",
  "longitude": -78.86626848,
  "latitude": -8.46648318,
  "name": "EL CARMELO",
  "address": "JOSE HERN N EZ DE AGUERO S/N N MERO S/N"
}, {
  "state": "LA LIBERTAD",
  "province": "TRUJILLO",
  "city": "HUANCHACO",
  "longitude": -79.06618084,
  "latitude": -8.02361632,
  "name": "CENTRO DE SALUD MATERNO INFANTIL EL MILAGRO",
  "address": "AVENIDA AVENIDA JUAN VELASCO ALVARADO MZ. 2 LOTE 13 - EL MILAGRO"
}, {
  "state": "LA LIBERTAD",
  "province": "OTUZCO",
  "city": "OTUZCO",
  "longitude": -78.59310167,
  "latitude": -7.77151667,
  "name": "PUESTO DE SALUD LLAUGUEDA",
  "address": "CASERIO LLAUGUEDA S/N N MERO S/N"
}, {
  "state": "LA LIBERTAD",
  "province": "TRUJILLO",
  "city": "MOCHE",
  "longitude": -79.0126097,
  "latitude": -8.167579,
  "name": "HOSPITAL I - MOCHE",
  "address": "CALLE CALLE ELIO JACOBO CAFFO S/N URB EL PARAISO N MERO S/N"
}, {
  "state": "LA LIBERTAD",
  "province": "ASCOPE",
  "city": "RAZURI",
  "longitude": -79.43629667,
  "latitude": -7.70364,
  "name": "RAZURI",
  "address": "CALLE CALLE JOSE OLAYA N  251"
}, {
  "state": "LA LIBERTAD",
  "province": "TRUJILLO",
  "city": "TRUJILLO",
  "longitude": -79.02843802,
  "latitude": -8.11466301,
  "name": "HOSPITAL BELEN DE TRUJILLO",
  "address": "JIRON JIRON BOLIVAR 350"
}, {
  "state": "LA LIBERTAD",
  "province": "VIRU",
  "city": "VIRU",
  "longitude": -78.82292712,
  "latitude": -8.40547544,
  "name": "VICTOR RAUL HAYA DE LA TORRE",
  "address": "VICTOR RAUL PARTE BAJA MZ. 1 LOTE 2"
}, {
  "state": "LA LIBERTAD",
  "province": "TRUJILLO",
  "city": "TRUJILLO",
  "longitude": -79.03687835,
  "latitude": -8.10466063,
  "name": "REGIONAL DOCENTE DE TRUJILLO",
  "address": "AV. MAN ICHE S/N N MERO S/N"
}, {
  "state": "LA LIBERTAD",
  "province": "ASCOPE",
  "city": "ASCOPE",
  "longitude": -79.11440667,
  "latitude": -7.71742333,
  "name": "CENTRO MEDICO ASCOPE",
  "address": "CARRETERA ASCOPE S/N"
}, {
  "state": "LA LIBERTAD",
  "province": "BOLIVAR",
  "city": "BOLIVAR",
  "longitude": -77.70199001,
  "latitude": -7.15448313,
  "name": "POSTA MEDICA DE BOLIVAR",
  "address": "JIRON JR. CORDOVA N  627"
}, {
  "state": "LA LIBERTAD",
  "province": "TRUJILLO",
  "city": "HUANCHACO",
  "longitude": -79.07453263,
  "latitude": -8.06505886,
  "name": "VICTOR RAUL HAYA DE LA TORRE",
  "address": "PLAZA MZ 40 LOTE 1-A PLAZA DE ARMAS - CP VICTOR RAUL HAYA DE LA TORRE"
}, {
  "state": "LA LIBERTAD",
  "province": "TRUJILLO",
  "city": "EL PORVENIR",
  "longitude": -79.00711,
  "latitude": -8.07474667,
  "name": "POLICLINICO EL PORVENIR",
  "address": "JIRON MAYTA CAPAC N  823 RIO SECO"
}]
